<svg width="1062" height="106" viewBox="0 0 1062 106" fill="none" xmlns="http://www.w3.org/2000/svg">
<rect x="0.5" y="0.5" width="1061" height="105" rx="7.5" fill="#FEF1E3"/>
<path d="M21.936 23.144L16.72 32.328V33H24.096V31.656H18.72L23.936 22.472V21.8H16.912V23.144H21.936ZM32.9569 28.632C32.9569 27.56 32.6369 26.664 31.9809 25.928C31.3409 25.176 30.4449 24.808 29.3089 24.808C28.1409 24.808 27.2449 25.208 26.6049 26.024C25.9809 26.824 25.6609 27.8 25.6609 28.968C25.6609 30.136 25.9809 31.112 26.6049 31.928C27.2449 32.728 28.1409 33.128 29.3089 33.128C30.9729 33.128 31.9809 32.472 32.7329 30.888L31.5489 30.376C31.0849 31.416 30.4449 31.912 29.3089 31.912C27.9169 31.912 27.1169 30.84 27.0369 29.256H32.9569V28.632ZM29.3089 26.024C30.5409 26.024 31.2929 26.824 31.5489 28.04H27.1169C27.3729 26.808 28.1089 26.024 29.3089 26.024ZM41.6373 27.32C41.6373 25.72 40.7413 24.808 39.2693 24.808C38.1013 24.808 37.2053 25.352 36.5973 26.424V24.936H35.2533V33H36.5973V29.624C36.5973 28.552 36.8213 27.672 37.2693 27.016C37.7333 26.36 38.2773 26.024 38.9013 26.024C39.8293 26.024 40.2933 26.568 40.2933 27.672V33H41.6373V27.32ZM44.2693 33H45.6133V24.936H44.2693V33ZM43.9333 22.696C43.9333 23.256 44.3653 23.688 44.9413 23.688C45.5173 23.688 45.9493 23.256 45.9493 22.696C45.9493 22.12 45.5173 21.672 44.9413 21.672C44.3653 21.672 43.9333 22.12 43.9333 22.696ZM48.8389 26.152V30.472C48.8389 32.216 49.7509 33.128 51.1749 33.128C51.7029 33.128 52.1349 33.032 52.4869 32.824L52.1669 31.656C51.9109 31.832 51.6069 31.912 51.2549 31.912C50.5669 31.912 50.1829 31.432 50.1829 30.584V26.152H52.2949V24.936H50.1829V21.672L48.8389 22.52V24.936H47.4469V26.152H48.8389ZM60.9684 27.4C60.9684 25.72 60.0884 24.808 58.6004 24.808C57.3684 24.808 56.3124 25.432 55.8004 26.44V21.672H54.4564V33H55.8004V29.576C55.8004 28.52 56.0404 27.672 56.5364 27.016C57.0324 26.36 57.6084 26.024 58.2324 26.024C59.1604 26.024 59.6244 26.568 59.6244 27.672V33H60.9684V27.4ZM68.177 33H72.161C74.337 33 75.649 31.736 75.649 29.672C75.649 28.328 74.945 27.32 73.841 26.872C74.593 26.472 75.105 25.64 75.105 24.68C75.105 22.872 73.921 21.8 71.953 21.8H68.177V33ZM71.953 27.704C73.441 27.704 74.193 28.36 74.193 29.672C74.193 31 73.441 31.656 71.953 31.656H69.585V27.704H71.953ZM71.873 23.144C72.961 23.144 73.649 23.72 73.649 24.76C73.649 25.8 72.961 26.36 71.873 26.36H69.585V23.144H71.873ZM78.7876 30.68C78.7876 29.768 79.5716 29.256 80.9316 29.256H82.3716V29.448C82.3716 30.296 82.1476 30.92 81.6996 31.32C81.2516 31.72 80.7236 31.912 80.1156 31.912C79.2676 31.912 78.7876 31.448 78.7876 30.68ZM83.7156 27.848C83.7156 25.8 82.4836 24.808 80.6116 24.808C79.0916 24.808 77.9556 25.656 77.7476 27.016L78.9316 27.288C79.1076 26.504 79.7636 26.024 80.6116 26.024C81.7796 26.024 82.3716 26.584 82.3716 27.688V28.04H81.0596C78.8036 28.04 77.4116 28.968 77.4116 30.68C77.4116 32.328 78.4516 33.128 79.9076 33.128C81.0116 33.128 81.8436 32.712 82.4356 31.864L82.6596 33H83.7156V27.848ZM92.4498 27.32C92.4498 25.72 91.5538 24.808 90.0818 24.808C88.9138 24.808 88.0178 25.352 87.4098 26.424V24.936H86.0658V33H87.4098V29.624C87.4098 28.552 87.6338 27.672 88.0818 27.016C88.5458 26.36 89.0898 26.024 89.7138 26.024C90.6418 26.024 91.1058 26.568 91.1058 27.672V33H92.4498V27.32ZM95.0814 33H96.4254V28.952L99.8334 33H101.545L97.8654 28.632L101.289 24.936H99.5614L96.4254 28.312V21.672H95.0814V33ZM111.519 28.2C113.615 28.2 114.847 26.968 114.847 25C114.847 23.032 113.615 21.8 111.519 21.8H107.615V33H109.023V28.2H111.519ZM109.023 26.856V23.144H111.599C112.751 23.144 113.391 23.8 113.391 25C113.391 26.2 112.751 26.856 111.599 26.856H109.023ZM116.833 33H123.329V31.656H118.241V21.8H116.833V33ZM132.273 29.336C131.745 30.968 130.737 31.784 129.249 31.784C128.177 31.784 127.312 31.4 126.641 30.648C125.985 29.896 125.649 28.808 125.649 27.4C125.649 25.992 125.985 24.904 126.641 24.152C127.312 23.4 128.177 23.016 129.249 23.016C130.737 23.016 131.745 23.832 132.273 25.464L133.633 25.064C133.377 24.056 132.865 23.24 132.097 22.616C131.329 21.992 130.385 21.672 129.249 21.672C127.857 21.672 126.657 22.168 125.664 23.176C124.689 24.184 124.193 25.592 124.193 27.4C124.193 29.208 124.689 30.616 125.664 31.624C126.657 32.632 127.857 33.128 129.249 33.128C130.385 33.128 131.329 32.824 132.097 32.2C132.865 31.576 133.377 30.744 133.633 29.736L132.273 29.336Z" fill="#2C2B2E"/>
<path d="M17.316 60H18.856V55.198L22.58 60H24.554L20.284 54.582L24.232 50.2H22.356L18.856 53.966V50.2H17.316V60ZM31.9193 58.096L30.6733 52.944H29.2733L28.0273 58.096L26.6693 52.944H25.1293L27.3693 60H28.6993L29.9733 55.016L31.2473 60H32.5773L34.8173 52.944H33.2773L31.9193 58.096ZM36.3681 59.062C36.9981 59.762 37.8521 60.112 38.9021 60.112C39.9521 60.112 40.7921 59.762 41.4221 59.062C42.0521 58.362 42.3741 57.494 42.3741 56.472C42.3741 55.45 42.0521 54.582 41.4221 53.882C40.7921 53.182 39.9521 52.832 38.9021 52.832C37.8521 52.832 36.9981 53.182 36.3681 53.882C35.7381 54.582 35.4301 55.45 35.4301 56.472C35.4301 57.494 35.7381 58.362 36.3681 59.062ZM37.4741 54.82C37.8241 54.358 38.3001 54.12 38.9021 54.12C39.5041 54.12 39.9801 54.358 40.3161 54.82C40.6661 55.282 40.8341 55.828 40.8341 56.472C40.8341 57.116 40.6661 57.676 40.3161 58.138C39.9801 58.6 39.5041 58.824 38.9021 58.824C38.3001 58.824 37.8241 58.6 37.4741 58.138C37.1381 57.676 36.9701 57.116 36.9701 56.472C36.9701 55.828 37.1381 55.282 37.4741 54.82ZM43.9872 60H45.4432V57.144C45.4432 56.22 45.6252 55.492 45.9752 54.946C46.3392 54.4 46.7592 54.12 47.2492 54.12C47.9772 54.12 48.3412 54.554 48.3412 55.408V60H49.7972V54.946C49.7972 53.602 48.9712 52.832 47.7252 52.832C46.7872 52.832 45.9472 53.308 45.4432 54.148V52.944H43.9872V60ZM52.2138 59.062C52.8438 59.762 53.6978 60.112 54.7478 60.112C55.7978 60.112 56.6378 59.762 57.2678 59.062C57.8978 58.362 58.2198 57.494 58.2198 56.472C58.2198 55.45 57.8978 54.582 57.2678 53.882C56.6378 53.182 55.7978 52.832 54.7478 52.832C53.6978 52.832 52.8438 53.182 52.2138 53.882C51.5838 54.582 51.2758 55.45 51.2758 56.472C51.2758 57.494 51.5838 58.362 52.2138 59.062ZM53.3198 54.82C53.6698 54.358 54.1458 54.12 54.7478 54.12C55.3498 54.12 55.8258 54.358 56.1618 54.82C56.5118 55.282 56.6798 55.828 56.6798 56.472C56.6798 57.116 56.5118 57.676 56.1618 58.138C55.8258 58.6 55.3498 58.824 54.7478 58.824C54.1458 58.824 53.6698 58.6 53.3198 58.138C52.9838 57.676 52.8158 57.116 52.8158 56.472C52.8158 55.828 52.9838 55.282 53.3198 54.82ZM61.2205 57.382C61.2205 56.332 61.4025 55.534 61.7805 54.974C62.1585 54.4 62.6065 54.12 63.1245 54.12C63.4465 54.12 63.7265 54.19 63.9505 54.33L64.2025 53C63.9225 52.888 63.6285 52.832 63.3065 52.832C62.5225 52.832 61.6825 53.294 61.2205 54.12V52.944H59.7645V60H61.2205V57.382ZM70.0098 51.404C69.1558 52.272 68.7218 53.504 68.7218 55.1C68.7218 56.696 69.1558 57.928 70.0098 58.81C70.8778 59.678 71.9418 60.112 73.2158 60.112C74.4898 60.112 75.5538 59.678 76.4078 58.81C77.2758 57.928 77.7098 56.696 77.7098 55.1C77.7098 53.504 77.2758 52.272 76.4078 51.404C75.5538 50.522 74.4898 50.088 73.2158 50.088C71.9418 50.088 70.8778 50.522 70.0098 51.404ZM75.3018 52.454C75.8618 53.056 76.1418 53.938 76.1418 55.1C76.1418 56.262 75.8618 57.144 75.3018 57.746C74.7558 58.348 74.0558 58.656 73.2158 58.656C72.3758 58.656 71.6758 58.348 71.1158 57.746C70.5698 57.144 70.2898 56.262 70.2898 55.1C70.2898 53.938 70.5698 53.056 71.1158 52.454C71.6758 51.852 72.3758 51.544 73.2158 51.544C74.0558 51.544 74.7558 51.852 75.3018 52.454ZM79.452 60H80.908V57.144C80.908 56.22 81.09 55.492 81.44 54.946C81.804 54.4 82.224 54.12 82.714 54.12C83.442 54.12 83.806 54.554 83.806 55.408V60H85.262V54.946C85.262 53.602 84.436 52.832 83.19 52.832C82.252 52.832 81.412 53.308 80.908 54.148V52.944H79.452V60ZM87.6787 59.062C88.3087 59.762 89.1627 60.112 90.2127 60.112C91.2627 60.112 92.1027 59.762 92.7327 59.062C93.3627 58.362 93.6847 57.494 93.6847 56.472C93.6847 55.45 93.3627 54.582 92.7327 53.882C92.1027 53.182 91.2627 52.832 90.2127 52.832C89.1627 52.832 88.3087 53.182 87.6787 53.882C87.0487 54.582 86.7407 55.45 86.7407 56.472C86.7407 57.494 87.0487 58.362 87.6787 59.062ZM88.7847 54.82C89.1347 54.358 89.6107 54.12 90.2127 54.12C90.8147 54.12 91.2907 54.358 91.6267 54.82C91.9767 55.282 92.1447 55.828 92.1447 56.472C92.1447 57.116 91.9767 57.676 91.6267 58.138C91.2907 58.6 90.8147 58.824 90.2127 58.824C89.6107 58.824 89.1347 58.6 88.7847 58.138C88.4487 57.676 88.2807 57.116 88.2807 56.472C88.2807 55.828 88.4487 55.282 88.7847 54.82ZM95.3935 60H96.8495V57.326C96.8495 55.31 97.5635 54.12 98.5015 54.12C99.1315 54.12 99.5375 54.526 99.5375 55.268V60H100.993V57.172C100.993 55.31 101.735 54.12 102.645 54.12C103.275 54.12 103.681 54.526 103.681 55.268V60H105.137V54.946C105.137 53.672 104.395 52.832 103.121 52.832C102.211 52.832 101.413 53.35 100.923 54.288C100.713 53.406 99.9295 52.832 98.9775 52.832C98.1235 52.832 97.4235 53.266 96.8495 54.148V52.944H95.3935V60ZM110.046 54.12C111.04 54.12 111.628 54.778 111.754 55.66H108.324C108.492 54.75 109.108 54.12 110.046 54.12ZM113.294 56.248C113.294 54.666 112.3 52.832 110.046 52.832C107.722 52.832 106.756 54.792 106.756 56.472C106.756 58.152 107.722 60.112 110.046 60.112C111.6 60.112 112.426 59.51 113.14 58.124L111.894 57.634C111.544 58.376 110.83 58.824 110.046 58.824C108.94 58.824 108.296 57.984 108.296 56.878H113.294V56.248ZM117.626 60H119.194L120.006 57.564H123.506L124.318 60H125.886L122.484 50.2H121.028L117.626 60ZM123.044 56.108H120.468L121.756 52.146L123.044 56.108ZM126.649 56.472C126.649 58.768 127.741 60.112 129.799 60.112C130.653 60.112 131.451 59.65 131.717 59.188V60H133.173V50.088H131.717V53.728C131.549 53.49 131.283 53.294 130.905 53.112C130.527 52.93 130.177 52.832 129.827 52.832C127.755 52.832 126.649 54.232 126.649 56.472ZM128.693 54.764C129.029 54.33 129.463 54.12 129.995 54.12C130.527 54.12 130.961 54.33 131.297 54.764C131.633 55.184 131.801 55.758 131.801 56.472C131.801 57.186 131.633 57.76 131.297 58.194C130.961 58.614 130.527 58.824 129.995 58.824C129.463 58.824 129.029 58.614 128.693 58.194C128.357 57.76 128.189 57.186 128.189 56.472C128.189 55.758 128.357 55.184 128.693 54.764ZM138.074 54.12C139.068 54.12 139.656 54.778 139.782 55.66H136.352C136.52 54.75 137.136 54.12 138.074 54.12ZM141.322 56.248C141.322 54.666 140.328 52.832 138.074 52.832C135.75 52.832 134.784 54.792 134.784 56.472C134.784 58.152 135.75 60.112 138.074 60.112C139.628 60.112 140.454 59.51 141.168 58.124L139.922 57.634C139.572 58.376 138.858 58.824 138.074 58.824C136.968 58.824 136.324 57.984 136.324 56.878H141.322V56.248ZM148.841 58.096L147.595 52.944H146.195L144.949 58.096L143.591 52.944H142.051L144.291 60H145.621L146.895 55.016L148.169 60H149.499L151.739 52.944H150.199L148.841 58.096ZM152.323 57.97C152.323 59.37 153.247 60.112 154.493 60.112C155.459 60.112 156.187 59.762 156.677 59.076L156.817 60H158.049V55.618C158.049 53.756 157.111 52.832 155.235 52.832C153.891 52.832 152.869 53.588 152.575 54.778L153.905 55.058C154.143 54.428 154.577 54.12 155.221 54.12C156.019 54.12 156.593 54.512 156.593 55.352V55.66H155.375C153.541 55.66 152.323 56.528 152.323 57.97ZM153.863 57.97C153.863 57.298 154.423 56.878 155.319 56.878H156.593V57.032C156.593 57.606 156.411 58.04 156.033 58.362C155.669 58.67 155.235 58.824 154.745 58.824C154.171 58.824 153.863 58.474 153.863 57.97ZM159.897 60H161.353V50.088H159.897V60ZM166.224 54.12C167.218 54.12 167.806 54.778 167.932 55.66H164.502C164.67 54.75 165.286 54.12 166.224 54.12ZM169.472 56.248C169.472 54.666 168.478 52.832 166.224 52.832C163.9 52.832 162.934 54.792 162.934 56.472C162.934 58.152 163.9 60.112 166.224 60.112C167.778 60.112 168.604 59.51 169.318 58.124L168.072 57.634C167.722 58.376 167.008 58.824 166.224 58.824C165.118 58.824 164.474 57.984 164.474 56.878H169.472V56.248Z" fill="#515A6A"/>
<path d="M16.994 77.824V79.392L18.828 78.3V86H20.312V76.2H19.71L16.994 77.824ZM28.0729 86V84.656H24.2929L27.0789 81.114C27.6249 80.428 27.8909 79.672 27.8909 78.874C27.8909 78.02 27.6249 77.334 27.0929 76.844C26.5749 76.34 25.8889 76.088 25.0489 76.088C24.2649 76.088 23.6069 76.34 23.0609 76.83C22.5289 77.32 22.2349 77.922 22.1929 78.664L23.5929 78.93C23.7049 78.02 24.2229 77.432 25.0489 77.432C25.9309 77.432 26.3929 78.02 26.3929 78.93C26.3929 79.546 26.2249 79.98 25.6089 80.75L21.9969 85.384V86H28.0729ZM29.4588 83.298C29.5148 84.11 29.8508 84.782 30.4668 85.314C31.0828 85.846 31.8108 86.112 32.6648 86.112C33.5748 86.112 34.3448 85.804 34.9608 85.202C35.5908 84.586 35.8988 83.816 35.8988 82.878C35.8988 82.01 35.6748 81.296 35.2128 80.75C34.7648 80.19 34.1628 79.91 33.4208 79.91C33.2668 79.91 33.1268 79.924 33.0148 79.952L35.3948 76.704V76.2H29.9348V77.544H33.2528L31.2228 80.372L31.8108 81.156C32.1048 81.03 32.3848 80.96 32.6648 80.96C33.7148 80.96 34.4148 81.646 34.4148 82.878C34.4148 84.068 33.7148 84.768 32.6648 84.768C31.6708 84.768 31.0828 84.222 30.9008 83.116L29.4588 83.298ZM43.1422 86V84.04H44.2902V82.696H43.1422V76.2H41.5742L37.4302 83.368V84.04H41.6582V86H43.1422ZM41.6582 78.44V82.696H39.2782L41.6582 78.44ZM45.966 83.438C46.148 85.118 47.352 86.112 49.018 86.112C49.97 86.112 50.726 85.804 51.286 85.188C51.86 84.572 52.14 83.774 52.14 82.808C52.14 81.828 51.874 81.03 51.342 80.428C50.81 79.812 50.068 79.504 49.102 79.504C48.542 79.504 48.066 79.672 47.674 79.994L47.968 77.544H51.594V76.2H46.722L46.176 81.66L47.142 81.856C47.646 81.184 48.276 80.848 49.018 80.848C50.082 80.848 50.656 81.618 50.656 82.808C50.656 83.998 50.068 84.768 49.018 84.768C48.178 84.768 47.576 84.278 47.408 83.172L45.966 83.438ZM57.1971 79.728C57.0571 79.728 56.9451 79.742 56.8751 79.784L59.0171 76.088H57.3651L54.4531 81.142C54.1311 81.702 53.9771 82.29 53.9771 82.92C53.9771 83.83 54.2711 84.586 54.8591 85.202C55.4611 85.804 56.2031 86.112 57.1131 86.112C58.0231 86.112 58.7651 85.804 59.3531 85.202C59.9551 84.586 60.2491 83.83 60.2491 82.92C60.2491 81.982 59.9691 81.226 59.3951 80.624C58.8211 80.022 58.0931 79.728 57.1971 79.728ZM55.4611 82.92C55.4611 81.786 56.1191 81.072 57.1131 81.072C58.1071 81.072 58.7651 81.786 58.7651 82.92C58.7651 83.998 58.0791 84.768 57.1131 84.768C56.1471 84.768 55.4611 83.998 55.4611 82.92ZM61.1343 76.2V77.544H65.1803L61.6943 86H63.1783L66.9303 76.872V76.2H61.1343ZM74.0351 78.734C74.0351 77.992 73.7691 77.376 73.2511 76.858C72.7331 76.34 72.0611 76.088 71.2631 76.088C70.4651 76.088 69.7931 76.34 69.2751 76.858C68.7571 77.376 68.4911 77.992 68.4911 78.734C68.4911 79.546 68.8131 80.204 69.4711 80.722C68.5751 81.24 68.1271 82.038 68.1271 83.116C68.1271 84.026 68.4351 84.754 69.0371 85.3C69.6391 85.846 70.3811 86.112 71.2631 86.112C72.1451 86.112 72.8871 85.846 73.4891 85.3C74.0911 84.754 74.3991 84.026 74.3991 83.116C74.3991 82.038 73.9511 81.24 73.0551 80.722C73.7131 80.19 74.0351 79.532 74.0351 78.734ZM72.4391 81.94C72.7611 82.22 72.9151 82.612 72.9151 83.116C72.9151 83.62 72.7611 84.026 72.4391 84.32C72.1171 84.614 71.7251 84.768 71.2631 84.768C70.8011 84.768 70.4091 84.614 70.0871 84.32C69.7651 84.026 69.6111 83.62 69.6111 83.116C69.6111 82.612 69.7651 82.22 70.0731 81.94C70.3951 81.66 70.7871 81.52 71.2631 81.52C71.7391 81.52 72.1311 81.66 72.4391 81.94ZM69.9331 78.748C69.9331 77.964 70.4931 77.376 71.2631 77.376C72.0331 77.376 72.5931 77.964 72.5931 78.748C72.5931 79.546 72.0331 80.134 71.2631 80.134C70.4931 80.134 69.9331 79.546 69.9331 78.748ZM78.8224 82.472C78.9624 82.472 79.0744 82.458 79.1444 82.416L77.0024 86.112H78.6544L81.5664 81.058C81.8884 80.498 82.0424 79.91 82.0424 79.28C82.0424 78.37 81.7484 77.614 81.1464 77.012C80.5584 76.396 79.8164 76.088 78.9064 76.088C77.9964 76.088 77.2544 76.396 76.6524 77.012C76.0644 77.614 75.7704 78.37 75.7704 79.28C75.7704 80.218 76.0504 80.974 76.6244 81.576C77.1984 82.178 77.9264 82.472 78.8224 82.472ZM80.5584 79.28C80.5584 80.414 79.9004 81.128 78.9064 81.128C77.9124 81.128 77.2544 80.414 77.2544 79.28C77.2544 78.202 77.9404 77.432 78.9064 77.432C79.8724 77.432 80.5584 78.202 80.5584 79.28ZM84.5111 77.418C83.9091 78.3 83.6011 79.532 83.6011 81.1C83.6011 82.668 83.9091 83.9 84.5111 84.782C85.1131 85.664 85.9951 86.112 87.1291 86.112C88.2631 86.112 89.1451 85.664 89.7471 84.782C90.3491 83.9 90.6571 82.668 90.6571 81.1C90.6571 79.532 90.3491 78.3 89.7471 77.418C89.1451 76.536 88.2631 76.088 87.1291 76.088C85.9951 76.088 85.1131 76.536 84.5111 77.418ZM88.6551 78.384C89.0051 79.014 89.1731 79.924 89.1731 81.1C89.1731 82.276 89.0051 83.186 88.6551 83.816C88.3191 84.446 87.8151 84.768 87.1291 84.768C86.4431 84.768 85.9391 84.446 85.5891 83.816C85.2531 83.186 85.0851 82.276 85.0851 81.1C85.0851 79.924 85.2531 79.014 85.5891 78.384C85.9391 77.754 86.4431 77.432 87.1291 77.432C87.8151 77.432 88.3191 77.754 88.6551 78.384Z" fill="#515A6A"/>
<rect x="1005" y="16" width="41" height="32" rx="4" fill="#F9F9F9"/>
<path d="M1014.32 37H1020.27V35.544H1015.86V32.52H1019.3V31.064H1015.86V28.656H1020.13V27.2H1014.32V37ZM1021.3 33.472C1021.3 35.768 1022.39 37.112 1024.45 37.112C1025.31 37.112 1026.1 36.65 1026.37 36.188V37H1027.83V27.088H1026.37V30.728C1026.2 30.49 1025.94 30.294 1025.56 30.112C1025.18 29.93 1024.83 29.832 1024.48 29.832C1022.41 29.832 1021.3 31.232 1021.3 33.472ZM1023.35 31.764C1023.68 31.33 1024.12 31.12 1024.65 31.12C1025.18 31.12 1025.61 31.33 1025.95 31.764C1026.29 32.184 1026.45 32.758 1026.45 33.472C1026.45 34.186 1026.29 34.76 1025.95 35.194C1025.61 35.614 1025.18 35.824 1024.65 35.824C1024.12 35.824 1023.68 35.614 1023.35 35.194C1023.01 34.76 1022.84 34.186 1022.84 33.472C1022.84 32.758 1023.01 32.184 1023.35 31.764ZM1029.75 28.67C1030.14 29.048 1030.81 29.048 1031.19 28.67C1031.58 28.278 1031.58 27.634 1031.19 27.242C1030.8 26.836 1030.15 26.836 1029.76 27.242C1029.37 27.634 1029.37 28.278 1029.75 28.67ZM1029.75 37H1031.2V29.944H1029.75V37ZM1033.84 31.232V34.592C1033.84 36.258 1034.75 37.112 1036.15 37.112C1036.56 37.112 1036.94 37.028 1037.29 36.86L1036.91 35.628C1036.7 35.754 1036.48 35.824 1036.24 35.824C1035.61 35.824 1035.3 35.446 1035.3 34.676V31.232H1037.13V29.944H1035.3V27.088L1033.84 27.998V29.944H1032.67V31.232H1033.84Z" fill="#332269"/>
<rect x="0.5" y="0.5" width="1061" height="105" rx="7.5" stroke="#FFD2A6"/>
</svg>
