<svg width="1062" height="124" viewBox="0 0 1062 124" fill="none" xmlns="http://www.w3.org/2000/svg">
<rect x="0.5" y="0.5" width="1061" height="123" rx="7.5" fill="#F4F1FF"/>
<path d="M23.095 35.284L21.566 30.114H20.466L18.937 35.284L17.529 29.3H16.253L18.288 37H19.52L21.016 32.116L22.512 37H23.744L25.779 29.3H24.503L23.095 35.284ZM25.3265 37H26.5585L27.1965 35.086H29.9465L30.5845 37H31.8165L29.1435 29.3H27.9995L25.3265 37ZM29.5835 33.942H27.5595L28.5715 30.829L29.5835 33.942ZM32.782 37H37.314V35.856H33.992V29.3H32.782V37ZM38.5506 37H43.0826V35.856H39.7606V29.3H38.5506V37ZM44.3192 37H48.9942V35.856H45.5292V33.48H48.2352V32.336H45.5292V30.444H48.8842V29.3H44.3192V37ZM52.1579 30.444V37H53.3679V30.444H55.5239V29.3H50.0019V30.444H52.1579ZM59.5194 37H62.3794C63.9084 37 64.7994 36.175 64.7994 34.734C64.7994 33.843 64.3594 33.106 63.6224 32.798C64.0734 32.567 64.4034 31.918 64.4034 31.313C64.4034 30.026 63.5674 29.3 62.2474 29.3H59.5194V37ZM62.1374 30.444C62.8414 30.444 63.1934 30.763 63.1934 31.39C63.1934 32.017 62.8414 32.336 62.1374 32.336H60.7294V30.444H62.1374ZM62.2144 33.48C63.1164 33.48 63.5674 33.876 63.5674 34.668C63.5674 35.46 63.1164 35.856 62.2144 35.856H60.7294V33.48H62.2144ZM65.3519 37H66.5839L67.2219 35.086H69.9719L70.6099 37H71.8419L69.1689 29.3H68.0249L65.3519 37ZM69.6089 33.942H67.5849L68.5969 30.829L69.6089 33.942ZM72.8074 37H77.3394V35.856H74.0174V29.3H72.8074V37ZM78.1351 37H79.3671L80.0051 35.086H82.7551L83.3931 37H84.6251L81.9521 29.3H80.8081L78.1351 37ZM82.3921 33.942H80.3681L81.3801 30.829L82.3921 33.942ZM90.0456 34.844L86.8886 29.3H85.5906V37H86.8006V31.478L89.9576 37H91.2556V29.3H90.0456V34.844ZM99.4753 31.544C99.0793 30.059 97.9793 29.212 96.3623 29.212C95.3723 29.212 94.5253 29.564 93.8323 30.257C93.1393 30.95 92.7983 31.907 92.7983 33.15C92.7983 34.393 93.1393 35.361 93.8323 36.054C94.5253 36.747 95.3723 37.088 96.3623 37.088C97.9793 37.088 99.0793 36.241 99.4753 34.756L98.3313 34.47C97.9353 35.482 97.3743 35.944 96.3623 35.944C94.9983 35.944 94.0303 34.954 94.0303 33.15C94.0303 31.346 94.9983 30.356 96.3623 30.356C97.3743 30.356 97.9353 30.818 98.3313 31.83L99.4753 31.544ZM100.791 37H105.466V35.856H102.001V33.48H104.707V32.336H102.001V30.444H105.356V29.3H100.791V37Z" fill="#515A6A"/>
<path d="M23.984 58.864L19.392 50.8H17.504V62H19.264V53.968L23.856 62H25.744V50.8H23.984V58.864ZM28.386 52.656V54.448L30.482 53.2V62H32.178V50.8H31.49L28.386 52.656ZM34.6844 59.072C34.8924 60.992 36.2684 62.128 38.1724 62.128C39.2604 62.128 40.1244 61.776 40.7644 61.072C41.4204 60.368 41.7404 59.456 41.7404 58.352C41.7404 57.232 41.4364 56.32 40.8284 55.632C40.2204 54.928 39.3724 54.576 38.2684 54.576C37.6284 54.576 37.0844 54.768 36.6364 55.136L36.9724 52.336H41.1164V50.8H35.5484L34.9244 57.04L36.0284 57.264C36.6044 56.496 37.3244 56.112 38.1724 56.112C39.3884 56.112 40.0444 56.992 40.0444 58.352C40.0444 59.712 39.3724 60.592 38.1724 60.592C37.2124 60.592 36.5244 60.032 36.3324 58.768L34.6844 59.072ZM50.2508 62V60.464H45.9308L49.1148 56.416C49.7388 55.632 50.0428 54.768 50.0428 53.856C50.0428 52.88 49.7388 52.096 49.1308 51.536C48.5388 50.96 47.7548 50.672 46.7948 50.672C45.8988 50.672 45.1468 50.96 44.5228 51.52C43.9148 52.08 43.5788 52.768 43.5308 53.616L45.1308 53.92C45.2588 52.88 45.8508 52.208 46.7948 52.208C47.8028 52.208 48.3308 52.88 48.3308 53.92C48.3308 54.624 48.1388 55.12 47.4348 56L43.3068 61.296V62H50.2508ZM53.6619 64.112L55.8379 59.952H53.5499L52.4139 64.112H53.6619ZM57.7383 50.8V52.336H62.3623L58.3783 62H60.0743L64.3623 51.568V50.8H57.7383ZM72.7195 62V60.464H68.3995L71.5835 56.416C72.2075 55.632 72.5115 54.768 72.5115 53.856C72.5115 52.88 72.2075 52.096 71.5995 51.536C71.0075 50.96 70.2235 50.672 69.2635 50.672C68.3675 50.672 67.6155 50.96 66.9915 51.52C66.3835 52.08 66.0475 52.768 65.9995 53.616L67.5995 53.92C67.7275 52.88 68.3195 52.208 69.2635 52.208C70.2715 52.208 70.7995 52.88 70.7995 53.92C70.7995 54.624 70.6075 55.12 69.9035 56L65.7755 61.296V62H72.7195ZM81.4821 53.696C81.4821 52.848 81.1781 52.144 80.5861 51.552C79.9941 50.96 79.2261 50.672 78.3141 50.672C77.4021 50.672 76.6341 50.96 76.0421 51.552C75.4501 52.144 75.1461 52.848 75.1461 53.696C75.1461 54.624 75.5141 55.376 76.2661 55.968C75.2421 56.56 74.7301 57.472 74.7301 58.704C74.7301 59.744 75.0821 60.576 75.7701 61.2C76.4581 61.824 77.3061 62.128 78.3141 62.128C79.3221 62.128 80.1701 61.824 80.8581 61.2C81.5461 60.576 81.8981 59.744 81.8981 58.704C81.8981 57.472 81.3861 56.56 80.3621 55.968C81.1141 55.36 81.4821 54.608 81.4821 53.696ZM79.6581 57.36C80.0261 57.68 80.2021 58.128 80.2021 58.704C80.2021 59.28 80.0261 59.744 79.6581 60.08C79.2901 60.416 78.8421 60.592 78.3141 60.592C77.7861 60.592 77.3381 60.416 76.9701 60.08C76.6021 59.744 76.4261 59.28 76.4261 58.704C76.4261 58.128 76.6021 57.68 76.9541 57.36C77.3221 57.04 77.7701 56.88 78.3141 56.88C78.8581 56.88 79.3061 57.04 79.6581 57.36ZM76.7941 53.712C76.7941 52.816 77.4341 52.144 78.3141 52.144C79.1941 52.144 79.8341 52.816 79.8341 53.712C79.8341 54.624 79.1941 55.296 78.3141 55.296C77.4341 55.296 76.7941 54.624 76.7941 53.712Z" fill="#2C2B2E"/>
<path d="M16 58H27.248V58.8H16V58Z" fill="#2C2B2E"/>
<path d="M17.164 95H22.036V93.992H18.22V86.6H17.164V95ZM23.9618 93.26C23.9618 92.576 24.5498 92.192 25.5698 92.192H26.6498V92.336C26.6498 92.972 26.4818 93.44 26.1458 93.74C25.8098 94.04 25.4138 94.184 24.9578 94.184C24.3218 94.184 23.9618 93.836 23.9618 93.26ZM27.6578 91.136C27.6578 89.6 26.7338 88.856 25.3298 88.856C24.1898 88.856 23.3378 89.492 23.1818 90.512L24.0698 90.716C24.2018 90.128 24.6938 89.768 25.3298 89.768C26.2058 89.768 26.6498 90.188 26.6498 91.016V91.28H25.6658C23.9738 91.28 22.9298 91.976 22.9298 93.26C22.9298 94.496 23.7098 95.096 24.8018 95.096C25.6298 95.096 26.2538 94.784 26.6978 94.148L26.8658 95H27.6578V91.136ZM31.2187 88.856C30.1507 88.856 29.4427 89.564 29.4427 90.524C29.4427 91.676 30.4507 92.06 31.2427 92.36C31.7827 92.552 32.2267 92.84 32.2267 93.236C32.2267 93.872 31.9027 94.184 31.2547 94.184C30.6427 94.184 30.1747 93.788 29.8507 92.996L28.9987 93.464C29.3467 94.388 30.1147 95.096 31.2547 95.096C32.4907 95.096 33.2587 94.376 33.2587 93.176C33.2707 91.4 30.4387 91.616 30.4507 90.536C30.4507 90.056 30.7627 89.768 31.1827 89.768C31.5547 89.768 31.9147 89.972 32.2867 90.368L32.9707 89.78C32.5387 89.168 31.9507 88.856 31.2187 88.856ZM35.1565 89.864V93.104C35.1565 94.412 35.8405 95.096 36.9085 95.096C37.3045 95.096 37.6285 95.024 37.8925 94.868L37.6525 93.992C37.4605 94.124 37.2325 94.184 36.9685 94.184C36.4525 94.184 36.1645 93.824 36.1645 93.188V89.864H37.7485V88.952H36.1645V86.504L35.1565 87.14V88.952H34.1125V89.864H35.1565ZM49.2506 93.44L47.4626 87.488H46.5026L44.7146 93.44L43.0106 86.6H41.8946L44.1386 95H45.2426L46.9826 89.228L48.7226 95H49.8266L52.0706 86.6H50.9546L49.2506 93.44ZM53.3855 95H54.3935V88.952H53.3855V95ZM53.1335 87.272C53.1335 87.692 53.4575 88.016 53.8895 88.016C54.3215 88.016 54.6455 87.692 54.6455 87.272C54.6455 86.84 54.3215 86.504 53.8895 86.504C53.4575 86.504 53.1335 86.84 53.1335 87.272ZM56.8128 89.864V93.104C56.8128 94.412 57.4968 95.096 58.5648 95.096C58.9608 95.096 59.2848 95.024 59.5488 94.868L59.3088 93.992C59.1168 94.124 58.8888 94.184 58.6248 94.184C58.1088 94.184 57.8208 93.824 57.8208 93.188V89.864H59.4048V88.952H57.8208V86.504L56.8128 87.14V88.952H55.7688V89.864H56.8128ZM65.9099 90.8C65.9099 89.54 65.2499 88.856 64.1339 88.856C63.2099 88.856 62.4179 89.324 62.0339 90.08V86.504H61.0259V95H62.0339V92.432C62.0339 91.64 62.2139 91.004 62.5859 90.512C62.9579 90.02 63.3899 89.768 63.8579 89.768C64.5539 89.768 64.9019 90.176 64.9019 91.004V95H65.9099V90.8ZM70.1251 88.856C68.3971 88.856 67.4371 90.104 67.4371 91.976C67.4371 93.848 68.3971 95.096 70.1251 95.096C70.8451 95.096 71.5891 94.724 71.8891 94.256V95H72.8971V86.504H71.8891V89.672C71.7811 89.48 71.5411 89.3 71.1931 89.12C70.8451 88.94 70.4851 88.856 70.1251 88.856ZM70.2211 94.184C69.1651 94.184 68.4691 93.284 68.4691 91.976C68.4691 90.668 69.1651 89.768 70.2211 89.768C71.3131 89.768 71.9731 90.668 71.9731 91.976C71.9731 93.284 71.3131 94.184 70.2211 94.184ZM78.4426 89.036C78.2146 88.916 77.9386 88.856 77.6146 88.856C76.9426 88.856 76.1866 89.312 75.8386 89.984V88.952H74.8306V95H75.8386V92.708C75.8386 91.784 76.0066 91.064 76.3426 90.548C76.6786 90.032 77.0746 89.768 77.5306 89.768C77.7826 89.768 78.0106 89.828 78.2386 89.936L78.4426 89.036ZM80.2587 93.26C80.2587 92.576 80.8467 92.192 81.8667 92.192H82.9467V92.336C82.9467 92.972 82.7787 93.44 82.4427 93.74C82.1067 94.04 81.7107 94.184 81.2547 94.184C80.6187 94.184 80.2587 93.836 80.2587 93.26ZM83.9547 91.136C83.9547 89.6 83.0307 88.856 81.6267 88.856C80.4867 88.856 79.6347 89.492 79.4787 90.512L80.3667 90.716C80.4987 90.128 80.9907 89.768 81.6267 89.768C82.5027 89.768 82.9467 90.188 82.9467 91.016V91.28H81.9627C80.2707 91.28 79.2267 91.976 79.2267 93.26C79.2267 94.496 80.0067 95.096 81.0987 95.096C81.9267 95.096 82.5507 94.784 82.9947 94.148L83.1627 95H83.9547V91.136ZM90.745 93.596L89.557 88.952H88.549L87.361 93.596L86.125 88.952H85.069L86.905 95H87.865L89.053 90.404L90.241 95H91.201L93.037 88.952H91.981L90.745 93.596ZM94.872 93.26C94.872 92.576 95.46 92.192 96.48 92.192H97.56V92.336C97.56 92.972 97.392 93.44 97.056 93.74C96.72 94.04 96.324 94.184 95.868 94.184C95.232 94.184 94.872 93.836 94.872 93.26ZM98.568 91.136C98.568 89.6 97.644 88.856 96.24 88.856C95.1 88.856 94.248 89.492 94.092 90.512L94.98 90.716C95.112 90.128 95.604 89.768 96.24 89.768C97.116 89.768 97.56 90.188 97.56 91.016V91.28H96.576C94.884 91.28 93.84 91.976 93.84 93.26C93.84 94.496 94.62 95.096 95.712 95.096C96.54 95.096 97.164 94.784 97.608 94.148L97.776 95H98.568V91.136ZM100.389 95H101.397V86.504H100.389V95ZM103.482 94.292C103.482 94.724 103.806 95.048 104.238 95.048C104.658 95.048 104.994 94.724 104.994 94.292C104.994 93.872 104.658 93.536 104.238 93.536C103.806 93.536 103.482 93.872 103.482 94.292ZM103.482 90.164C103.482 90.596 103.806 90.92 104.238 90.92C104.658 90.92 104.994 90.596 104.994 90.164C104.994 89.744 104.658 89.408 104.238 89.408C103.806 89.408 103.482 89.744 103.482 90.164ZM110.169 87.908V89.012L111.717 88.112V95H112.701V86.6H112.329L110.169 87.908ZM119.663 95V94.04H116.219L118.835 90.656C119.279 90.068 119.507 89.468 119.507 88.832C119.507 88.172 119.327 87.632 118.979 87.236C118.547 86.744 117.935 86.504 117.155 86.504C116.507 86.504 115.955 86.72 115.499 87.14C115.055 87.56 114.803 88.088 114.767 88.712L115.775 88.904C115.859 88.04 116.375 87.464 117.155 87.464C117.599 87.464 117.935 87.596 118.163 87.872C118.367 88.124 118.475 88.436 118.475 88.832C118.475 89.36 118.319 89.756 117.791 90.428L114.587 94.532V95H119.663ZM127.845 92.372C127.845 93.512 127.377 94.088 126.453 94.088C125.673 94.088 125.181 93.62 124.977 92.672L123.909 92.9C124.137 94.16 125.001 95.096 126.453 95.096C127.161 95.096 127.749 94.856 128.205 94.388C128.673 93.92 128.901 93.26 128.901 92.42V86.6H127.845V92.372ZM130.645 93.212C130.645 94.412 131.317 95.096 132.421 95.096C133.297 95.096 133.969 94.688 134.425 93.884V95H135.433V88.952H134.425V91.484C134.425 92.288 134.257 92.948 133.909 93.44C133.573 93.932 133.165 94.184 132.697 94.184C132.001 94.184 131.653 93.776 131.653 92.948V88.952H130.645V93.212ZM142.255 90.74C142.255 89.54 141.583 88.856 140.479 88.856C139.603 88.856 138.931 89.264 138.475 90.068V88.952H137.467V95H138.475V92.468C138.475 91.664 138.643 91.004 138.979 90.512C139.327 90.02 139.735 89.768 140.203 89.768C140.899 89.768 141.247 90.176 141.247 91.004V95H142.255V90.74ZM149.268 91.724C149.268 90.92 149.028 90.248 148.536 89.696C148.056 89.132 147.384 88.856 146.532 88.856C145.656 88.856 144.984 89.156 144.504 89.768C144.036 90.368 143.796 91.1 143.796 91.976C143.796 92.852 144.036 93.584 144.504 94.196C144.984 94.796 145.656 95.096 146.532 95.096C147.78 95.096 148.536 94.604 149.1 93.416L148.212 93.032C147.864 93.812 147.384 94.184 146.532 94.184C145.488 94.184 144.888 93.38 144.828 92.192H149.268V91.724ZM146.532 89.768C147.456 89.768 148.02 90.368 148.212 91.28H144.888C145.08 90.356 145.632 89.768 146.532 89.768ZM159.014 95V94.04H155.57L158.186 90.656C158.63 90.068 158.858 89.468 158.858 88.832C158.858 88.172 158.678 87.632 158.33 87.236C157.898 86.744 157.286 86.504 156.506 86.504C155.858 86.504 155.306 86.72 154.85 87.14C154.406 87.56 154.154 88.088 154.118 88.712L155.126 88.904C155.21 88.04 155.726 87.464 156.506 87.464C156.95 87.464 157.286 87.596 157.514 87.872C157.718 88.124 157.826 88.436 157.826 88.832C157.826 89.36 157.67 89.756 157.142 90.428L153.938 94.532V95H159.014ZM161.302 87.656C160.798 88.412 160.546 89.468 160.546 90.8C160.546 92.132 160.798 93.188 161.302 93.956C161.806 94.712 162.538 95.096 163.498 95.096C164.458 95.096 165.19 94.712 165.694 93.956C166.198 93.188 166.45 92.132 166.45 90.8C166.45 89.468 166.198 88.412 165.694 87.656C165.19 86.888 164.458 86.504 163.498 86.504C162.538 86.504 161.806 86.888 161.302 87.656ZM164.914 88.34C165.238 88.928 165.394 89.744 165.394 90.8C165.394 91.856 165.238 92.672 164.914 93.26C164.59 93.848 164.122 94.136 163.498 94.136C162.874 94.136 162.406 93.848 162.082 93.26C161.758 92.672 161.602 91.856 161.602 90.8C161.602 89.744 161.758 88.928 162.082 88.34C162.406 87.752 162.874 87.464 163.498 87.464C164.122 87.464 164.59 87.752 164.914 88.34ZM173.088 95V94.04H169.644L172.26 90.656C172.704 90.068 172.932 89.468 172.932 88.832C172.932 88.172 172.752 87.632 172.404 87.236C171.972 86.744 171.36 86.504 170.58 86.504C169.932 86.504 169.38 86.72 168.924 87.14C168.48 87.56 168.228 88.088 168.192 88.712L169.2 88.904C169.284 88.04 169.8 87.464 170.58 87.464C171.024 87.464 171.36 87.596 171.588 87.872C171.792 88.124 171.9 88.436 171.9 88.832C171.9 89.36 171.744 89.756 171.216 90.428L168.012 94.532V95H173.088ZM174.646 87.908V89.012L176.194 88.112V95H177.178V86.6H176.806L174.646 87.908Z" fill="#515A6A"/>
<rect x="969" y="24" width="77" height="32" rx="4" fill="#332269"/>
<path d="M986.03 42.816L984.084 36.236H982.684L980.738 42.816L978.946 35.2H977.322L979.912 45H981.48L983.384 38.784L985.288 45H986.856L989.446 35.2H987.822L986.03 42.816ZM990.849 36.67C991.241 37.048 991.913 37.048 992.291 36.67C992.683 36.278 992.683 35.634 992.291 35.242C991.899 34.836 991.255 34.836 990.863 35.242C990.471 35.634 990.471 36.278 990.849 36.67ZM990.849 45H992.305V37.944H990.849V45ZM994.945 39.232V42.592C994.945 44.258 995.855 45.112 997.255 45.112C997.661 45.112 998.039 45.028 998.389 44.86L998.011 43.628C997.801 43.754 997.577 43.824 997.339 43.824C996.709 43.824 996.401 43.446 996.401 42.676V39.232H998.235V37.944H996.401V35.088L994.945 35.998V37.944H993.769V39.232H994.945ZM999.806 45H1001.26V42.018C1001.26 41.15 1001.47 40.45 1001.88 39.918C1002.28 39.386 1002.72 39.12 1003.17 39.12C1003.89 39.12 1004.27 39.4 1004.27 40.408V45H1005.73V40.03C1005.73 38.56 1004.97 37.832 1003.64 37.832C1002.66 37.832 1001.86 38.266 1001.26 39.148V35.088H999.806V45ZM1007.24 41.472C1007.24 43.768 1008.34 45.112 1010.39 45.112C1011.25 45.112 1012.05 44.65 1012.31 44.188V45H1013.77V35.088H1012.31V38.728C1012.14 38.49 1011.88 38.294 1011.5 38.112C1011.12 37.93 1010.77 37.832 1010.42 37.832C1008.35 37.832 1007.24 39.232 1007.24 41.472ZM1009.29 39.764C1009.62 39.33 1010.06 39.12 1010.59 39.12C1011.12 39.12 1011.56 39.33 1011.89 39.764C1012.23 40.184 1012.4 40.758 1012.4 41.472C1012.4 42.186 1012.23 42.76 1011.89 43.194C1011.56 43.614 1011.12 43.824 1010.59 43.824C1010.06 43.824 1009.62 43.614 1009.29 43.194C1008.95 42.76 1008.78 42.186 1008.78 41.472C1008.78 40.758 1008.95 40.184 1009.29 39.764ZM1017.19 42.382C1017.19 41.332 1017.37 40.534 1017.75 39.974C1018.13 39.4 1018.58 39.12 1019.09 39.12C1019.42 39.12 1019.7 39.19 1019.92 39.33L1020.17 38C1019.89 37.888 1019.6 37.832 1019.28 37.832C1018.49 37.832 1017.65 38.294 1017.19 39.12V37.944H1015.73V45H1017.19V42.382ZM1020.72 42.97C1020.72 44.37 1021.65 45.112 1022.89 45.112C1023.86 45.112 1024.59 44.762 1025.08 44.076L1025.22 45H1026.45V40.618C1026.45 38.756 1025.51 37.832 1023.64 37.832C1022.29 37.832 1021.27 38.588 1020.98 39.778L1022.31 40.058C1022.54 39.428 1022.98 39.12 1023.62 39.12C1024.42 39.12 1024.99 39.512 1024.99 40.352V40.66H1023.78C1021.94 40.66 1020.72 41.528 1020.72 42.97ZM1022.26 42.97C1022.26 42.298 1022.82 41.878 1023.72 41.878H1024.99V42.032C1024.99 42.606 1024.81 43.04 1024.43 43.362C1024.07 43.67 1023.64 43.824 1023.15 43.824C1022.57 43.824 1022.26 43.474 1022.26 42.97ZM1034.03 43.096L1032.78 37.944H1031.38L1030.14 43.096L1028.78 37.944H1027.24L1029.48 45H1030.81L1032.08 40.016L1033.36 45H1034.69L1036.93 37.944H1035.39L1034.03 43.096Z" fill="white"/>
<rect x="0.5" y="0.5" width="1061" height="123" rx="7.5" stroke="#765FBE"/>
</svg>
