<svg width="254" height="80" viewBox="0 0 254 80" fill="none" xmlns="http://www.w3.org/2000/svg">
<rect x="1" y="0.5" width="252.5" height="79" rx="3.5" fill="#FEF1E3"/>
<path d="M106.17 24.32V26.56L108.79 25V36H110.91V22H110.05L106.17 24.32ZM114.1 24.32V26.56L116.72 25V36H118.84V22H117.98L114.1 24.32ZM122.729 33.58C122.169 34.14 122.169 35.1 122.729 35.68C123.309 36.24 124.269 36.24 124.829 35.68C125.409 35.1 125.409 34.14 124.829 33.58C124.269 33 123.309 33 122.729 33.58ZM133.037 27.04C132.837 27.04 132.677 27.06 132.577 27.12L135.637 21.84H133.277L129.117 29.06C128.657 29.86 128.437 30.7 128.437 31.6C128.437 32.9 128.857 33.98 129.697 34.86C130.557 35.72 131.617 36.16 132.917 36.16C134.217 36.16 135.277 35.72 136.117 34.86C136.977 33.98 137.397 32.9 137.397 31.6C137.397 30.26 136.997 29.18 136.177 28.32C135.357 27.46 134.317 27.04 133.037 27.04ZM130.557 31.6C130.557 29.98 131.497 28.96 132.917 28.96C134.337 28.96 135.277 29.98 135.277 31.6C135.277 33.14 134.297 34.24 132.917 34.24C131.537 34.24 130.557 33.14 130.557 31.6ZM140.259 36H142.339V31.18L146.239 36H148.879L144.399 30.56L148.619 25.92H145.979L142.339 29.94V21.84H140.259V36Z" fill="#332269"/>
<path d="M99.21 55.336C98.682 56.968 97.674 57.784 96.186 57.784C95.114 57.784 94.25 57.4 93.578 56.648C92.922 55.896 92.586 54.808 92.586 53.4C92.586 51.992 92.922 50.904 93.578 50.152C94.25 49.4 95.114 49.016 96.186 49.016C97.674 49.016 98.682 49.832 99.21 51.464L100.57 51.064C100.314 50.056 99.802 49.24 99.034 48.616C98.266 47.992 97.322 47.672 96.186 47.672C94.794 47.672 93.594 48.168 92.602 49.176C91.626 50.184 91.13 51.592 91.13 53.4C91.13 55.208 91.626 56.616 92.602 57.624C93.594 58.632 94.794 59.128 96.186 59.128C97.322 59.128 98.266 58.824 99.034 58.2C99.802 57.576 100.314 56.744 100.57 55.736L99.21 55.336ZM109.25 53.4C109.25 51.72 108.37 50.808 106.882 50.808C105.65 50.808 104.594 51.432 104.082 52.44V47.672H102.738V59H104.082V55.576C104.082 54.52 104.322 53.672 104.818 53.016C105.314 52.36 105.89 52.024 106.514 52.024C107.442 52.024 107.906 52.568 107.906 53.672V59H109.25V53.4ZM118.582 54.632C118.582 53.56 118.262 52.664 117.606 51.928C116.966 51.176 116.07 50.808 114.934 50.808C113.766 50.808 112.87 51.208 112.23 52.024C111.606 52.824 111.286 53.8 111.286 54.968C111.286 56.136 111.606 57.112 112.23 57.928C112.87 58.728 113.766 59.128 114.934 59.128C116.598 59.128 117.606 58.472 118.358 56.888L117.174 56.376C116.71 57.416 116.07 57.912 114.934 57.912C113.542 57.912 112.742 56.84 112.662 55.256H118.582V54.632ZM114.934 52.024C116.166 52.024 116.918 52.824 117.174 54.04H112.742C112.998 52.808 113.734 52.024 114.934 52.024ZM126.314 56.424C125.882 57.416 125.146 57.912 124.106 57.912C122.618 57.912 121.818 56.696 121.818 54.968C121.818 53.24 122.618 52.024 124.106 52.024C125.146 52.024 125.882 52.52 126.314 53.512L127.482 53.032C126.826 51.544 125.706 50.808 124.106 50.808C122.938 50.808 122.026 51.208 121.386 52.024C120.762 52.824 120.442 53.8 120.442 54.968C120.442 56.136 120.762 57.112 121.386 57.928C122.026 58.728 122.938 59.128 124.106 59.128C125.706 59.128 126.826 58.392 127.482 56.904L126.314 56.424ZM129.456 59H130.8V54.952L134.208 59H135.92L132.24 54.632L135.664 50.936H133.936L130.8 54.312V47.672H129.456V59ZM142.716 54.52V53.336H137.292V54.52H142.716ZM145.347 59H146.691V50.936H145.347V59ZM145.011 48.696C145.011 49.256 145.443 49.688 146.019 49.688C146.595 49.688 147.027 49.256 147.027 48.696C147.027 48.12 146.595 47.672 146.019 47.672C145.443 47.672 145.011 48.12 145.011 48.696ZM155.465 53.32C155.465 51.72 154.569 50.808 153.097 50.808C151.929 50.808 151.033 51.352 150.425 52.424V50.936H149.081V59H150.425V55.624C150.425 54.552 150.649 53.672 151.097 53.016C151.561 52.36 152.105 52.024 152.729 52.024C153.657 52.024 154.121 52.568 154.121 53.672V59H155.465V53.32ZM160.339 50.808C158.914 50.808 157.971 51.752 157.971 53.032C157.971 54.568 159.315 55.08 160.371 55.48C161.091 55.736 161.683 56.12 161.683 56.648C161.683 57.496 161.251 57.912 160.387 57.912C159.571 57.912 158.947 57.384 158.515 56.328L157.379 56.952C157.843 58.184 158.867 59.128 160.387 59.128C162.035 59.128 163.059 58.168 163.059 56.568C163.075 54.2 159.299 54.488 159.315 53.048C159.315 52.408 159.731 52.024 160.291 52.024C160.786 52.024 161.266 52.296 161.763 52.824L162.675 52.04C162.099 51.224 161.315 50.808 160.339 50.808Z" fill="#515A6A"/>
<rect x="1" y="0.5" width="252.5" height="79" rx="3.5" stroke="#FADCBE"/>
</svg>
