<svg width="254" height="80" viewBox="0 0 254 80" fill="none" xmlns="http://www.w3.org/2000/svg">
<rect x="1" y="0.5" width="252.5" height="79" rx="3.5" fill="#FEF1E3"/>
<path d="M104.67 24.32V26.56L107.29 25V36H109.41V22H108.55L104.67 24.32ZM113.98 38.64L116.7 33.44H113.84L112.42 38.64H113.98ZM123.875 30.96C124.075 30.96 124.235 30.94 124.335 30.88L121.275 36.16H123.635L127.795 28.94C128.255 28.14 128.475 27.3 128.475 26.4C128.475 25.1 128.055 24.02 127.195 23.16C126.355 22.28 125.295 21.84 123.995 21.84C122.695 21.84 121.635 22.28 120.775 23.16C119.935 24.02 119.515 25.1 119.515 26.4C119.515 27.74 119.915 28.82 120.735 29.68C121.555 30.54 122.595 30.96 123.875 30.96ZM126.355 26.4C126.355 28.02 125.415 29.04 123.995 29.04C122.575 29.04 121.635 28.02 121.635 26.4C121.635 24.86 122.615 23.76 123.995 23.76C125.375 23.76 126.355 24.86 126.355 26.4ZM138.579 25.62C138.579 24.56 138.199 23.68 137.459 22.94C136.719 22.2 135.759 21.84 134.619 21.84C133.479 21.84 132.519 22.2 131.779 22.94C131.039 23.68 130.659 24.56 130.659 25.62C130.659 26.78 131.119 27.72 132.059 28.46C130.779 29.2 130.139 30.34 130.139 31.88C130.139 33.18 130.579 34.22 131.439 35C132.299 35.78 133.359 36.16 134.619 36.16C135.879 36.16 136.939 35.78 137.799 35C138.659 34.22 139.099 33.18 139.099 31.88C139.099 30.34 138.459 29.2 137.179 28.46C138.119 27.7 138.579 26.76 138.579 25.62ZM136.299 30.2C136.759 30.6 136.979 31.16 136.979 31.88C136.979 32.6 136.759 33.18 136.299 33.6C135.839 34.02 135.279 34.24 134.619 34.24C133.959 34.24 133.399 34.02 132.939 33.6C132.479 33.18 132.259 32.6 132.259 31.88C132.259 31.16 132.479 30.6 132.919 30.2C133.379 29.8 133.939 29.6 134.619 29.6C135.299 29.6 135.859 29.8 136.299 30.2ZM132.719 25.64C132.719 24.52 133.519 23.68 134.619 23.68C135.719 23.68 136.519 24.52 136.519 25.64C136.519 26.78 135.719 27.62 134.619 27.62C133.519 27.62 132.719 26.78 132.719 25.64ZM149.735 36V34.08H144.335L148.315 29.02C149.095 28.04 149.475 26.96 149.475 25.82C149.475 24.6 149.095 23.62 148.335 22.92C147.595 22.2 146.615 21.84 145.415 21.84C144.295 21.84 143.355 22.2 142.575 22.9C141.815 23.6 141.395 24.46 141.335 25.52L143.335 25.9C143.495 24.6 144.235 23.76 145.415 23.76C146.675 23.76 147.335 24.6 147.335 25.9C147.335 26.78 147.095 27.4 146.215 28.5L141.055 35.12V36H149.735Z" fill="#332269"/>
<path d="M108.506 56.92L106.122 48.984H104.842L102.458 56.92L100.186 47.8H98.698L101.69 59H103.162L105.482 51.304L107.802 59H109.274L112.266 47.8H110.778L108.506 56.92ZM114.46 56.68C114.46 55.768 115.244 55.256 116.604 55.256H118.044V55.448C118.044 56.296 117.82 56.92 117.372 57.32C116.924 57.72 116.396 57.912 115.788 57.912C114.94 57.912 114.46 57.448 114.46 56.68ZM119.388 53.848C119.388 51.8 118.156 50.808 116.284 50.808C114.764 50.808 113.628 51.656 113.42 53.016L114.604 53.288C114.78 52.504 115.436 52.024 116.284 52.024C117.452 52.024 118.044 52.584 118.044 53.688V54.04H116.732C114.476 54.04 113.084 54.968 113.084 56.68C113.084 58.328 114.124 59.128 115.58 59.128C116.684 59.128 117.516 58.712 118.108 57.864L118.332 59H119.388V53.848ZM121.738 59H123.082V50.936H121.738V59ZM121.402 48.696C121.402 49.256 121.834 49.688 122.41 49.688C122.986 49.688 123.418 49.256 123.418 48.696C123.418 48.12 122.986 47.672 122.41 47.672C121.834 47.672 121.402 48.12 121.402 48.696ZM125.706 59H127.05V47.672H125.706V59ZM130.558 52.152V56.472C130.558 58.216 131.47 59.128 132.894 59.128C133.422 59.128 133.854 59.032 134.206 58.824L133.886 57.656C133.63 57.832 133.326 57.912 132.974 57.912C132.286 57.912 131.902 57.432 131.902 56.584V52.152H134.014V50.936H131.902V47.672L130.558 48.52V50.936H129.166V52.152H130.558ZM136.253 59H137.597V47.672H136.253V59ZM140.004 59H141.348V50.936H140.004V59ZM139.668 48.696C139.668 49.256 140.1 49.688 140.676 49.688C141.252 49.688 141.684 49.256 141.684 48.696C141.684 48.12 141.252 47.672 140.676 47.672C140.1 47.672 139.668 48.12 139.668 48.696ZM146.26 50.808C144.836 50.808 143.892 51.752 143.892 53.032C143.892 54.568 145.236 55.08 146.292 55.48C147.012 55.736 147.604 56.12 147.604 56.648C147.604 57.496 147.172 57.912 146.308 57.912C145.492 57.912 144.868 57.384 144.436 56.328L143.3 56.952C143.764 58.184 144.788 59.128 146.308 59.128C147.956 59.128 148.98 58.168 148.98 56.568C148.996 54.2 145.22 54.488 145.236 53.048C145.236 52.408 145.652 52.024 146.212 52.024C146.708 52.024 147.188 52.296 147.684 52.824L148.596 52.04C148.02 51.224 147.236 50.808 146.26 50.808ZM151.511 52.152V56.472C151.511 58.216 152.423 59.128 153.847 59.128C154.375 59.128 154.807 59.032 155.159 58.824L154.839 57.656C154.583 57.832 154.279 57.912 153.927 57.912C153.239 57.912 152.855 57.432 152.855 56.584V52.152H154.967V50.936H152.855V47.672L151.511 48.52V50.936H150.119V52.152H151.511Z" fill="#515A6A"/>
<rect x="1" y="0.5" width="252.5" height="79" rx="3.5" stroke="#FADCBE"/>
</svg>
