<svg width="254" height="80" viewBox="0 0 254 80" fill="none" xmlns="http://www.w3.org/2000/svg">
<rect x="0.5" y="0.5" width="252.5" height="79" rx="3.5" fill="#FEF1E3"/>
<path d="M99.25 32.34C99.51 34.74 101.23 36.16 103.61 36.16C104.97 36.16 106.05 35.72 106.85 34.84C107.67 33.96 108.07 32.82 108.07 31.44C108.07 30.04 107.69 28.9 106.93 28.04C106.17 27.16 105.11 26.72 103.73 26.72C102.93 26.72 102.25 26.96 101.69 27.42L102.11 23.92H107.29V22H100.33L99.55 29.8L100.93 30.08C101.65 29.12 102.55 28.64 103.61 28.64C105.13 28.64 105.95 29.74 105.95 31.44C105.95 33.14 105.11 34.24 103.61 34.24C102.41 34.24 101.55 33.54 101.31 31.96L99.25 32.34ZM114.098 30.96C114.298 30.96 114.458 30.94 114.558 30.88L111.498 36.16H113.858L118.018 28.94C118.478 28.14 118.698 27.3 118.698 26.4C118.698 25.1 118.278 24.02 117.418 23.16C116.578 22.28 115.518 21.84 114.218 21.84C112.918 21.84 111.858 22.28 110.998 23.16C110.158 24.02 109.738 25.1 109.738 26.4C109.738 27.74 110.138 28.82 110.958 29.68C111.778 30.54 112.818 30.96 114.098 30.96ZM116.578 26.4C116.578 28.02 115.638 29.04 114.218 29.04C112.798 29.04 111.858 28.02 111.858 26.4C111.858 24.86 112.838 23.76 114.218 23.76C115.598 23.76 116.578 24.86 116.578 26.4ZM121.96 33.58C121.4 34.14 121.4 35.1 121.96 35.68C122.54 36.24 123.5 36.24 124.06 35.68C124.64 35.1 124.64 34.14 124.06 33.58C123.5 33 122.54 33 121.96 33.58ZM136.087 25.62C136.087 24.56 135.707 23.68 134.967 22.94C134.227 22.2 133.267 21.84 132.127 21.84C130.987 21.84 130.027 22.2 129.287 22.94C128.547 23.68 128.167 24.56 128.167 25.62C128.167 26.78 128.627 27.72 129.567 28.46C128.287 29.2 127.647 30.34 127.647 31.88C127.647 33.18 128.087 34.22 128.947 35C129.807 35.78 130.867 36.16 132.127 36.16C133.387 36.16 134.447 35.78 135.307 35C136.167 34.22 136.607 33.18 136.607 31.88C136.607 30.34 135.967 29.2 134.687 28.46C135.627 27.7 136.087 26.76 136.087 25.62ZM133.807 30.2C134.267 30.6 134.487 31.16 134.487 31.88C134.487 32.6 134.267 33.18 133.807 33.6C133.347 34.02 132.787 34.24 132.127 34.24C131.467 34.24 130.907 34.02 130.447 33.6C129.987 33.18 129.767 32.6 129.767 31.88C129.767 31.16 129.987 30.6 130.427 30.2C130.887 29.8 131.447 29.6 132.127 29.6C132.807 29.6 133.367 29.8 133.807 30.2ZM130.227 25.64C130.227 24.52 131.027 23.68 132.127 23.68C133.227 23.68 134.027 24.52 134.027 25.64C134.027 26.78 133.227 27.62 132.127 27.62C131.027 27.62 130.227 26.78 130.227 25.64ZM140.083 27.32C140.703 27.94 141.483 28.24 142.383 28.24C143.283 28.24 144.063 27.94 144.683 27.32C145.303 26.7 145.623 25.94 145.623 25.04C145.623 24.14 145.303 23.4 144.683 22.78C144.063 22.16 143.283 21.84 142.383 21.84C141.483 21.84 140.703 22.16 140.083 22.78C139.463 23.4 139.143 24.14 139.143 25.04C139.143 25.94 139.463 26.7 140.083 27.32ZM141.303 23.94C141.563 23.64 141.923 23.5 142.383 23.5C142.843 23.5 143.203 23.64 143.463 23.94C144.003 24.5 144.003 25.58 143.463 26.16C143.203 26.44 142.843 26.58 142.383 26.58C141.923 26.58 141.563 26.44 141.303 26.16C140.763 25.58 140.763 24.5 141.303 23.94ZM148.203 35.24C148.823 35.86 149.603 36.16 150.503 36.16C151.403 36.16 152.183 35.86 152.803 35.24C153.423 34.62 153.743 33.86 153.743 32.96C153.743 32.06 153.423 31.32 152.803 30.7C152.183 30.08 151.403 29.76 150.503 29.76C149.603 29.76 148.823 30.08 148.203 30.7C147.583 31.32 147.263 32.06 147.263 32.96C147.263 33.86 147.583 34.62 148.203 35.24ZM149.423 31.86C149.683 31.56 150.043 31.42 150.503 31.42C150.963 31.42 151.323 31.56 151.583 31.86C152.123 32.42 152.123 33.5 151.583 34.08C151.323 34.36 150.963 34.5 150.503 34.5C150.043 34.5 149.683 34.36 149.423 34.08C148.883 33.5 148.883 32.42 149.423 31.86ZM140.603 35.74L141.763 36.64L152.543 22.24L151.383 21.34L140.603 35.74Z" fill="#332269"/>
<path d="M85.21 55.336C84.682 56.968 83.674 57.784 82.186 57.784C81.114 57.784 80.25 57.4 79.578 56.648C78.922 55.896 78.586 54.808 78.586 53.4C78.586 51.992 78.922 50.904 79.578 50.152C80.25 49.4 81.114 49.016 82.186 49.016C83.674 49.016 84.682 49.832 85.21 51.464L86.57 51.064C86.314 50.056 85.802 49.24 85.034 48.616C84.266 47.992 83.322 47.672 82.186 47.672C80.794 47.672 79.594 48.168 78.602 49.176C77.626 50.184 77.13 51.592 77.13 53.4C77.13 55.208 77.626 56.616 78.602 57.624C79.594 58.632 80.794 59.128 82.186 59.128C83.322 59.128 84.266 58.824 85.034 58.2C85.802 57.576 86.314 56.744 86.57 55.736L85.21 55.336ZM95.2496 53.4C95.2496 51.72 94.3696 50.808 92.8816 50.808C91.6496 50.808 90.5936 51.432 90.0816 52.44V47.672H88.7376V59H90.0816V55.576C90.0816 54.52 90.3216 53.672 90.8176 53.016C91.3136 52.36 91.8896 52.024 92.5136 52.024C93.4416 52.024 93.9056 52.568 93.9056 53.672V59H95.2496V53.4ZM104.582 54.632C104.582 53.56 104.262 52.664 103.606 51.928C102.966 51.176 102.07 50.808 100.934 50.808C99.7659 50.808 98.8699 51.208 98.2299 52.024C97.6059 52.824 97.2859 53.8 97.2859 54.968C97.2859 56.136 97.6059 57.112 98.2299 57.928C98.8699 58.728 99.7659 59.128 100.934 59.128C102.598 59.128 103.606 58.472 104.358 56.888L103.174 56.376C102.71 57.416 102.07 57.912 100.934 57.912C99.5419 57.912 98.7419 56.84 98.6619 55.256H104.582V54.632ZM100.934 52.024C102.166 52.024 102.918 52.824 103.174 54.04H98.7419C98.9979 52.808 99.7339 52.024 100.934 52.024ZM112.314 56.424C111.882 57.416 111.146 57.912 110.106 57.912C108.618 57.912 107.818 56.696 107.818 54.968C107.818 53.24 108.618 52.024 110.106 52.024C111.146 52.024 111.882 52.52 112.314 53.512L113.482 53.032C112.826 51.544 111.706 50.808 110.106 50.808C108.938 50.808 108.026 51.208 107.386 52.024C106.762 52.824 106.442 53.8 106.442 54.968C106.442 56.136 106.762 57.112 107.386 57.928C108.026 58.728 108.938 59.128 110.106 59.128C111.706 59.128 112.826 58.392 113.482 56.904L112.314 56.424ZM115.456 59H116.8V54.952L120.208 59H121.92L118.24 54.632L121.664 50.936H119.936L116.8 54.312V47.672H115.456V59ZM128.716 54.52V53.336H123.292V54.52H128.716ZM131.347 59H132.691V50.936H131.347V59ZM131.011 48.696C131.011 49.256 131.443 49.688 132.019 49.688C132.595 49.688 133.027 49.256 133.027 48.696C133.027 48.12 132.595 47.672 132.019 47.672C131.443 47.672 131.011 48.12 131.011 48.696ZM141.465 53.32C141.465 51.72 140.569 50.808 139.097 50.808C137.929 50.808 137.033 51.352 136.425 52.424V50.936H135.081V59H136.425V55.624C136.425 54.552 136.649 53.672 137.097 53.016C137.561 52.36 138.105 52.024 138.729 52.024C139.657 52.024 140.121 52.568 140.121 53.672V59H141.465V53.32ZM153.413 51.048C153.109 50.888 152.741 50.808 152.309 50.808C151.413 50.808 150.405 51.416 149.941 52.312V50.936H148.597V59H149.941V55.944C149.941 54.712 150.165 53.752 150.613 53.064C151.061 52.376 151.589 52.024 152.197 52.024C152.533 52.024 152.837 52.104 153.141 52.248L153.413 51.048ZM155.835 56.68C155.835 55.768 156.619 55.256 157.979 55.256H159.419V55.448C159.419 56.296 159.195 56.92 158.747 57.32C158.299 57.72 157.771 57.912 157.163 57.912C156.315 57.912 155.835 57.448 155.835 56.68ZM160.763 53.848C160.763 51.8 159.531 50.808 157.659 50.808C156.139 50.808 155.003 51.656 154.795 53.016L155.979 53.288C156.155 52.504 156.811 52.024 157.659 52.024C158.827 52.024 159.419 52.584 159.419 53.688V54.04H158.107C155.851 54.04 154.459 54.968 154.459 56.68C154.459 58.328 155.499 59.128 156.955 59.128C158.059 59.128 158.891 58.712 159.483 57.864L159.707 59H160.763V53.848ZM163.761 52.152V56.472C163.761 58.216 164.673 59.128 166.097 59.128C166.625 59.128 167.057 59.032 167.409 58.824L167.089 57.656C166.833 57.832 166.529 57.912 166.177 57.912C165.489 57.912 165.105 57.432 165.105 56.584V52.152H167.217V50.936H165.105V47.672L163.761 48.52V50.936H162.369V52.152H163.761ZM176.035 54.632C176.035 53.56 175.715 52.664 175.059 51.928C174.419 51.176 173.523 50.808 172.387 50.808C171.219 50.808 170.323 51.208 169.683 52.024C169.059 52.824 168.739 53.8 168.739 54.968C168.739 56.136 169.059 57.112 169.683 57.928C170.323 58.728 171.219 59.128 172.387 59.128C174.051 59.128 175.059 58.472 175.811 56.888L174.627 56.376C174.163 57.416 173.523 57.912 172.387 57.912C170.995 57.912 170.195 56.84 170.115 55.256H176.035V54.632ZM172.387 52.024C173.619 52.024 174.371 52.824 174.627 54.04H170.195C170.451 52.808 171.187 52.024 172.387 52.024Z" fill="#515A6A"/>
<rect x="0.5" y="0.5" width="252.5" height="79" rx="3.5" stroke="#FADCBE"/>
</svg>
