<svg width="327" height="493" viewBox="0 0 327 493" fill="none" xmlns="http://www.w3.org/2000/svg">
<path d="M100.688 143C75.688 146 38.188 164 17.688 194C-13.8124 105 34.688 12.5 130.188 0H294.688C311.257 0 324.688 13.4315 324.688 30V48.5C324.688 65.0685 311.257 78.5 294.688 78.5H172.188C130.188 78.5 100.688 107.5 100.688 143Z" fill="white"/>
<path d="M326.688 121H245.188V187C217.998 168.763 179.188 163.198 154.688 165.5C-52.812 185 -49.812 474 153.188 493C245.188 493 296.131 452.161 326.688 359H238.188C222.688 394 196.688 416.11 153.188 409.5C51.188 394 64.688 257 153.188 249.5C191.188 246.28 211.798 261.302 232.688 288H326.688V121Z" fill="white"/>
</svg>
