<svg width="1062" height="594" viewBox="0 0 1062 594" fill="none" xmlns="http://www.w3.org/2000/svg">
<rect x="0.5" y="0.5" width="1061" height="593" rx="7.5" fill="#F5F0EB"/>
<path d="M26.898 37.656V46H28.438V37.656H31.182V36.2H24.154V37.656H26.898ZM34.0611 46V36.2H32.5211V46H34.0611ZM44.3819 39.056C43.8779 37.166 42.4779 36.088 40.4199 36.088C39.1599 36.088 38.0819 36.536 37.1999 37.418C36.3179 38.3 35.8839 39.518 35.8839 41.1C35.8839 42.682 36.3179 43.914 37.1999 44.796C38.0819 45.678 39.1599 46.112 40.4199 46.112C42.4779 46.112 43.8779 45.034 44.3819 43.144L42.9259 42.78C42.4219 44.068 41.7079 44.656 40.4199 44.656C38.6839 44.656 37.4519 43.396 37.4519 41.1C37.4519 38.804 38.6839 37.544 40.4199 37.544C41.7079 37.544 42.4219 38.132 42.9259 39.42L44.3819 39.056ZM46.0562 46H47.5962V41.198L51.3202 46H53.2942L49.0242 40.582L52.9722 36.2H51.0962L47.5962 39.966V36.2H46.0562V46ZM54.5328 46H60.4828V44.544H56.0728V41.52H59.5168V40.064H56.0728V37.656H60.3428V36.2H54.5328V46ZM64.5093 37.656V46H66.0493V37.656H68.7933V36.2H61.7653V37.656H64.5093ZM75.3091 37.74C74.6931 36.634 73.7971 36.088 72.6071 36.088C71.8931 36.088 71.2771 36.34 70.7871 36.83C70.2971 37.32 70.0451 37.922 70.0451 38.664C70.0451 41.688 74.2171 41.268 74.2171 43.186C74.2171 44.04 73.6011 44.656 72.7191 44.656C71.7531 44.656 71.0951 43.97 70.7451 42.584L69.4851 43.382C69.8351 45.006 71.0391 46.112 72.7191 46.112C73.6151 46.112 74.3431 45.832 74.9171 45.286C75.4911 44.74 75.7851 44.012 75.7851 43.13C75.7991 41.366 74.2451 40.666 73.0691 40.148C72.2431 39.756 71.5851 39.266 71.5851 38.552C71.5851 37.95 71.9911 37.488 72.6071 37.488C73.1951 37.488 73.6851 37.852 74.0631 38.566L75.3091 37.74Z" fill="#332269"/>
<rect x="822.5" y="24.5" width="105" height="33" rx="5.5" fill="#F5F0EB"/>
<path d="M834.84 46V37.36H838.41C838.494 37.36 838.602 37.364 838.734 37.372C838.866 37.376 838.988 37.388 839.1 37.408C839.6 37.484 840.012 37.65 840.336 37.906C840.664 38.162 840.906 38.486 841.062 38.878C841.222 39.266 841.302 39.698 841.302 40.174C841.302 40.646 841.222 41.078 841.062 41.47C840.902 41.858 840.658 42.18 840.33 42.436C840.006 42.692 839.596 42.858 839.1 42.934C838.988 42.95 838.864 42.962 838.728 42.97C838.596 42.978 838.49 42.982 838.41 42.982H836.286V46H834.84ZM836.286 41.632H838.35C838.43 41.632 838.52 41.628 838.62 41.62C838.72 41.612 838.812 41.596 838.896 41.572C839.136 41.512 839.324 41.406 839.46 41.254C839.6 41.102 839.698 40.93 839.754 40.738C839.814 40.546 839.844 40.358 839.844 40.174C839.844 39.99 839.814 39.802 839.754 39.61C839.698 39.414 839.6 39.24 839.46 39.088C839.324 38.936 839.136 38.83 838.896 38.77C838.812 38.746 838.72 38.732 838.62 38.728C838.52 38.72 838.43 38.716 838.35 38.716H836.286V41.632ZM844.392 46.18C843.924 46.18 843.528 46.092 843.204 45.916C842.88 45.736 842.634 45.498 842.466 45.202C842.302 44.906 842.22 44.58 842.22 44.224C842.22 43.912 842.272 43.632 842.376 43.384C842.48 43.132 842.64 42.916 842.856 42.736C843.072 42.552 843.352 42.402 843.696 42.286C843.956 42.202 844.26 42.126 844.608 42.058C844.96 41.99 845.34 41.928 845.748 41.872C846.16 41.812 846.59 41.748 847.038 41.68L846.522 41.974C846.526 41.526 846.426 41.196 846.222 40.984C846.018 40.772 845.674 40.666 845.19 40.666C844.898 40.666 844.616 40.734 844.344 40.87C844.072 41.006 843.882 41.24 843.774 41.572L842.454 41.158C842.614 40.61 842.918 40.17 843.366 39.838C843.818 39.506 844.426 39.34 845.19 39.34C845.766 39.34 846.272 39.434 846.708 39.622C847.148 39.81 847.474 40.118 847.686 40.546C847.802 40.774 847.872 41.008 847.896 41.248C847.92 41.484 847.932 41.742 847.932 42.022V46H846.666V44.596L846.876 44.824C846.584 45.292 846.242 45.636 845.85 45.856C845.462 46.072 844.976 46.18 844.392 46.18ZM844.68 45.028C845.008 45.028 845.288 44.97 845.52 44.854C845.752 44.738 845.936 44.596 846.072 44.428C846.212 44.26 846.306 44.102 846.354 43.954C846.43 43.77 846.472 43.56 846.48 43.324C846.492 43.084 846.498 42.89 846.498 42.742L846.942 42.874C846.506 42.942 846.132 43.002 845.82 43.054C845.508 43.106 845.24 43.156 845.016 43.204C844.792 43.248 844.594 43.298 844.422 43.354C844.254 43.414 844.112 43.484 843.996 43.564C843.88 43.644 843.79 43.736 843.726 43.84C843.666 43.944 843.636 44.066 843.636 44.206C843.636 44.366 843.676 44.508 843.756 44.632C843.836 44.752 843.952 44.848 844.104 44.92C844.26 44.992 844.452 45.028 844.68 45.028ZM852.236 46.18C851.436 46.18 850.786 46 850.286 45.64C849.786 45.28 849.482 44.774 849.374 44.122L850.85 43.894C850.926 44.214 851.094 44.466 851.354 44.65C851.614 44.834 851.942 44.926 852.338 44.926C852.686 44.926 852.954 44.858 853.142 44.722C853.334 44.582 853.43 44.392 853.43 44.152C853.43 44.004 853.394 43.886 853.322 43.798C853.254 43.706 853.102 43.618 852.866 43.534C852.63 43.45 852.268 43.344 851.78 43.216C851.236 43.072 850.804 42.918 850.484 42.754C850.164 42.586 849.934 42.388 849.794 42.16C849.654 41.932 849.584 41.656 849.584 41.332C849.584 40.928 849.69 40.576 849.902 40.276C850.114 39.976 850.41 39.746 850.79 39.586C851.17 39.422 851.618 39.34 852.134 39.34C852.638 39.34 853.084 39.418 853.472 39.574C853.864 39.73 854.18 39.952 854.42 40.24C854.66 40.528 854.808 40.866 854.864 41.254L853.388 41.518C853.352 41.242 853.226 41.024 853.01 40.864C852.798 40.704 852.514 40.614 852.158 40.594C851.818 40.574 851.544 40.626 851.336 40.75C851.128 40.87 851.024 41.04 851.024 41.26C851.024 41.384 851.066 41.49 851.15 41.578C851.234 41.666 851.402 41.754 851.654 41.842C851.91 41.93 852.29 42.038 852.794 42.166C853.31 42.298 853.722 42.45 854.03 42.622C854.342 42.79 854.566 42.992 854.702 43.228C854.842 43.464 854.912 43.75 854.912 44.086C854.912 44.738 854.674 45.25 854.198 45.622C853.726 45.994 853.072 46.18 852.236 46.18ZM860.264 46C859.836 46.08 859.416 46.114 859.004 46.102C858.596 46.094 858.23 46.02 857.906 45.88C857.582 45.736 857.336 45.51 857.168 45.202C857.02 44.922 856.942 44.636 856.934 44.344C856.926 44.052 856.922 43.722 856.922 43.354V37.72H858.362V43.27C858.362 43.53 858.364 43.758 858.368 43.954C858.376 44.15 858.418 44.31 858.494 44.434C858.638 44.674 858.868 44.808 859.184 44.836C859.5 44.864 859.86 44.848 860.264 44.788V46ZM855.746 40.654V39.52H860.264V40.654H855.746ZM866.04 46V38.938L864.42 39.928V38.332L866.04 37.36H867.516V46H866.04ZM873.536 48.88L874.784 45.454L874.808 46.462L871.982 39.52H873.488L875.492 44.656H875.108L877.058 39.52H878.504L874.892 48.88H873.536ZM882.351 46.18C881.695 46.18 881.119 46.038 880.623 45.754C880.127 45.47 879.739 45.076 879.459 44.572C879.183 44.068 879.045 43.488 879.045 42.832C879.045 42.124 879.181 41.51 879.453 40.99C879.725 40.466 880.103 40.06 880.587 39.772C881.071 39.484 881.631 39.34 882.267 39.34C882.939 39.34 883.509 39.498 883.977 39.814C884.449 40.126 884.799 40.568 885.027 41.14C885.255 41.712 885.341 42.386 885.285 43.162H883.851V42.634C883.847 41.93 883.723 41.416 883.479 41.092C883.235 40.768 882.851 40.606 882.327 40.606C881.735 40.606 881.295 40.79 881.007 41.158C880.719 41.522 880.575 42.056 880.575 42.76C880.575 43.416 880.719 43.924 881.007 44.284C881.295 44.644 881.715 44.824 882.267 44.824C882.623 44.824 882.929 44.746 883.185 44.59C883.445 44.43 883.645 44.2 883.785 43.9L885.213 44.332C884.965 44.916 884.581 45.37 884.061 45.694C883.545 46.018 882.975 46.18 882.351 46.18ZM880.119 43.162V42.07H884.577V43.162H880.119ZM888.558 46.18C888.09 46.18 887.694 46.092 887.37 45.916C887.046 45.736 886.8 45.498 886.632 45.202C886.468 44.906 886.386 44.58 886.386 44.224C886.386 43.912 886.438 43.632 886.542 43.384C886.646 43.132 886.806 42.916 887.022 42.736C887.238 42.552 887.518 42.402 887.862 42.286C888.122 42.202 888.426 42.126 888.774 42.058C889.126 41.99 889.506 41.928 889.914 41.872C890.326 41.812 890.756 41.748 891.204 41.68L890.688 41.974C890.692 41.526 890.592 41.196 890.388 40.984C890.184 40.772 889.84 40.666 889.356 40.666C889.064 40.666 888.782 40.734 888.51 40.87C888.238 41.006 888.048 41.24 887.94 41.572L886.62 41.158C886.78 40.61 887.084 40.17 887.532 39.838C887.984 39.506 888.592 39.34 889.356 39.34C889.932 39.34 890.438 39.434 890.874 39.622C891.314 39.81 891.64 40.118 891.852 40.546C891.968 40.774 892.038 41.008 892.062 41.248C892.086 41.484 892.098 41.742 892.098 42.022V46H890.832V44.596L891.042 44.824C890.75 45.292 890.408 45.636 890.016 45.856C889.628 46.072 889.142 46.18 888.558 46.18ZM888.846 45.028C889.174 45.028 889.454 44.97 889.686 44.854C889.918 44.738 890.102 44.596 890.238 44.428C890.378 44.26 890.472 44.102 890.52 43.954C890.596 43.77 890.638 43.56 890.646 43.324C890.658 43.084 890.664 42.89 890.664 42.742L891.108 42.874C890.672 42.942 890.298 43.002 889.986 43.054C889.674 43.106 889.406 43.156 889.182 43.204C888.958 43.248 888.76 43.298 888.588 43.354C888.42 43.414 888.278 43.484 888.162 43.564C888.046 43.644 887.956 43.736 887.892 43.84C887.832 43.944 887.802 44.066 887.802 44.206C887.802 44.366 887.842 44.508 887.922 44.632C888.002 44.752 888.118 44.848 888.27 44.92C888.426 44.992 888.618 45.028 888.846 45.028ZM893.9 46V39.52H895.178V41.098L895.022 40.894C895.102 40.678 895.208 40.482 895.34 40.306C895.476 40.126 895.638 39.978 895.826 39.862C895.986 39.754 896.162 39.67 896.354 39.61C896.55 39.546 896.75 39.508 896.954 39.496C897.158 39.48 897.356 39.488 897.548 39.52V40.87C897.356 40.814 897.134 40.796 896.882 40.816C896.634 40.836 896.41 40.906 896.21 41.026C896.01 41.134 895.846 41.272 895.718 41.44C895.594 41.608 895.502 41.8 895.442 42.016C895.382 42.228 895.352 42.458 895.352 42.706V46H893.9Z" fill="#515A6A"/>
<path fill-rule="evenodd" clip-rule="evenodd" d="M912 43.3342C911.829 43.3342 911.659 43.2688 911.529 43.1388L908.862 40.4722C908.601 40.2115 908.601 39.7902 908.862 39.5295C909.123 39.2688 909.544 39.2688 909.805 39.5295L912.008 41.7328L914.203 39.6128C914.469 39.3575 914.89 39.3648 915.146 39.6295C915.402 39.8942 915.395 40.3168 915.13 40.5722L912.463 43.1468C912.333 43.2722 912.167 43.3342 912 43.3342Z" fill="#515A6A"/>
<mask id="mask0_929_78908" style="mask-type:alpha" maskUnits="userSpaceOnUse" x="908" y="39" width="8" height="5">
<path fill-rule="evenodd" clip-rule="evenodd" d="M912 43.3342C911.829 43.3342 911.659 43.2688 911.529 43.1388L908.862 40.4722C908.601 40.2115 908.601 39.7902 908.862 39.5295C909.123 39.2688 909.544 39.2688 909.805 39.5295L912.008 41.7328L914.203 39.6128C914.469 39.3575 914.89 39.3648 915.146 39.6295C915.402 39.8942 915.395 40.3168 915.13 40.5722L912.463 43.1468C912.333 43.2722 912.167 43.3342 912 43.3342Z" fill="white"/>
</mask>
<g mask="url(#mask0_929_78908)">
<rect x="904" y="33" width="16" height="16" fill="#515A6A"/>
</g>
<rect x="822.5" y="24.5" width="105" height="33" rx="5.5" stroke="#FFD2A6"/>
<rect x="936.5" y="24.5" width="101" height="33" rx="5.5" fill="#F4F1FF"/>
<path d="M948.84 46V37.36H951.594C951.666 37.36 951.808 37.362 952.02 37.366C952.236 37.37 952.444 37.384 952.644 37.408C953.328 37.496 953.906 37.74 954.378 38.14C954.854 38.536 955.214 39.042 955.458 39.658C955.702 40.274 955.824 40.948 955.824 41.68C955.824 42.412 955.702 43.086 955.458 43.702C955.214 44.318 954.854 44.826 954.378 45.226C953.906 45.622 953.328 45.864 952.644 45.952C952.448 45.976 952.242 45.99 952.026 45.994C951.81 45.998 951.666 46 951.594 46H948.84ZM950.31 44.638H951.594C951.714 44.638 951.866 44.634 952.05 44.626C952.238 44.618 952.404 44.6 952.548 44.572C952.956 44.496 953.288 44.314 953.544 44.026C953.8 43.738 953.988 43.388 954.108 42.976C954.232 42.564 954.294 42.132 954.294 41.68C954.294 41.212 954.232 40.772 954.108 40.36C953.984 39.948 953.792 39.602 953.532 39.322C953.276 39.042 952.948 38.864 952.548 38.788C952.404 38.756 952.238 38.738 952.05 38.734C951.866 38.726 951.714 38.722 951.594 38.722H950.31V44.638ZM960.344 46.18C959.696 46.18 959.13 46.034 958.646 45.742C958.162 45.45 957.786 45.048 957.518 44.536C957.254 44.02 957.122 43.428 957.122 42.76C957.122 42.08 957.258 41.484 957.53 40.972C957.802 40.46 958.18 40.06 958.664 39.772C959.148 39.484 959.708 39.34 960.344 39.34C960.996 39.34 961.564 39.486 962.048 39.778C962.532 40.07 962.908 40.474 963.176 40.99C963.444 41.502 963.578 42.092 963.578 42.76C963.578 43.432 963.442 44.026 963.17 44.542C962.902 45.054 962.526 45.456 962.042 45.748C961.558 46.036 960.992 46.18 960.344 46.18ZM960.344 44.824C960.92 44.824 961.348 44.632 961.628 44.248C961.908 43.864 962.048 43.368 962.048 42.76C962.048 42.132 961.906 41.632 961.622 41.26C961.338 40.884 960.912 40.696 960.344 40.696C959.956 40.696 959.636 40.784 959.384 40.96C959.136 41.132 958.952 41.374 958.832 41.686C958.712 41.994 958.652 42.352 958.652 42.76C958.652 43.388 958.794 43.89 959.078 44.266C959.366 44.638 959.788 44.824 960.344 44.824ZM966.286 46L964.306 39.508L965.722 39.52L966.988 43.678L968.272 39.52H969.49L970.768 43.678L972.04 39.52H973.456L971.476 46H970.348L968.878 41.542L967.414 46H966.286ZM979.261 46V42.88C979.261 42.676 979.247 42.45 979.219 42.202C979.191 41.954 979.125 41.716 979.021 41.488C978.921 41.256 978.769 41.066 978.565 40.918C978.365 40.77 978.093 40.696 977.749 40.696C977.565 40.696 977.383 40.726 977.203 40.786C977.023 40.846 976.859 40.95 976.711 41.098C976.567 41.242 976.451 41.442 976.363 41.698C976.275 41.95 976.231 42.274 976.231 42.67L975.373 42.304C975.373 41.752 975.479 41.252 975.691 40.804C975.907 40.356 976.223 40 976.639 39.736C977.055 39.468 977.567 39.334 978.175 39.334C978.655 39.334 979.051 39.414 979.363 39.574C979.675 39.734 979.923 39.938 980.107 40.186C980.291 40.434 980.427 40.698 980.515 40.978C980.603 41.258 980.659 41.524 980.683 41.776C980.711 42.024 980.725 42.226 980.725 42.382V46H979.261ZM974.767 46V39.52H976.057V41.53H976.231V46H974.767ZM982.65 46V37.18H984.096V46H982.65ZM988.996 46.18C988.348 46.18 987.782 46.034 987.298 45.742C986.814 45.45 986.438 45.048 986.17 44.536C985.906 44.02 985.774 43.428 985.774 42.76C985.774 42.08 985.91 41.484 986.182 40.972C986.454 40.46 986.832 40.06 987.316 39.772C987.8 39.484 988.36 39.34 988.996 39.34C989.648 39.34 990.216 39.486 990.7 39.778C991.184 40.07 991.56 40.474 991.828 40.99C992.096 41.502 992.23 42.092 992.23 42.76C992.23 43.432 992.094 44.026 991.822 44.542C991.554 45.054 991.178 45.456 990.694 45.748C990.21 46.036 989.644 46.18 988.996 46.18ZM988.996 44.824C989.572 44.824 990 44.632 990.28 44.248C990.56 43.864 990.7 43.368 990.7 42.76C990.7 42.132 990.558 41.632 990.274 41.26C989.99 40.884 989.564 40.696 988.996 40.696C988.608 40.696 988.288 40.784 988.036 40.96C987.788 41.132 987.604 41.374 987.484 41.686C987.364 41.994 987.304 42.352 987.304 42.76C987.304 43.388 987.446 43.89 987.73 44.266C988.018 44.638 988.44 44.824 988.996 44.824ZM995.604 46.18C995.136 46.18 994.74 46.092 994.416 45.916C994.092 45.736 993.846 45.498 993.678 45.202C993.514 44.906 993.432 44.58 993.432 44.224C993.432 43.912 993.484 43.632 993.588 43.384C993.692 43.132 993.852 42.916 994.068 42.736C994.284 42.552 994.564 42.402 994.908 42.286C995.168 42.202 995.472 42.126 995.82 42.058C996.172 41.99 996.552 41.928 996.96 41.872C997.372 41.812 997.802 41.748 998.25 41.68L997.734 41.974C997.738 41.526 997.638 41.196 997.434 40.984C997.23 40.772 996.886 40.666 996.402 40.666C996.11 40.666 995.828 40.734 995.556 40.87C995.284 41.006 995.094 41.24 994.986 41.572L993.666 41.158C993.826 40.61 994.13 40.17 994.578 39.838C995.03 39.506 995.638 39.34 996.402 39.34C996.978 39.34 997.484 39.434 997.92 39.622C998.36 39.81 998.686 40.118 998.898 40.546C999.014 40.774 999.084 41.008 999.108 41.248C999.132 41.484 999.144 41.742 999.144 42.022V46H997.878V44.596L998.088 44.824C997.796 45.292 997.454 45.636 997.062 45.856C996.674 46.072 996.188 46.18 995.604 46.18ZM995.892 45.028C996.22 45.028 996.5 44.97 996.732 44.854C996.964 44.738 997.148 44.596 997.284 44.428C997.424 44.26 997.518 44.102 997.566 43.954C997.642 43.77 997.684 43.56 997.692 43.324C997.704 43.084 997.71 42.89 997.71 42.742L998.154 42.874C997.718 42.942 997.344 43.002 997.032 43.054C996.72 43.106 996.452 43.156 996.228 43.204C996.004 43.248 995.806 43.298 995.634 43.354C995.466 43.414 995.324 43.484 995.208 43.564C995.092 43.644 995.002 43.736 994.938 43.84C994.878 43.944 994.848 44.066 994.848 44.206C994.848 44.366 994.888 44.508 994.968 44.632C995.048 44.752 995.164 44.848 995.316 44.92C995.472 44.992 995.664 45.028 995.892 45.028ZM1003.54 46.18C1002.95 46.18 1002.43 46.03 1001.98 45.73C1001.54 45.43 1001.2 45.022 1000.95 44.506C1000.71 43.99 1000.59 43.408 1000.59 42.76C1000.59 42.104 1000.71 41.52 1000.95 41.008C1001.2 40.492 1001.55 40.086 1002 39.79C1002.45 39.49 1002.99 39.34 1003.6 39.34C1004.21 39.34 1004.73 39.49 1005.15 39.79C1005.57 40.086 1005.88 40.492 1006.1 41.008C1006.32 41.524 1006.42 42.108 1006.42 42.76C1006.42 43.404 1006.32 43.986 1006.1 44.506C1005.88 45.022 1005.56 45.43 1005.13 45.73C1004.71 46.03 1004.18 46.18 1003.54 46.18ZM1003.77 44.884C1004.15 44.884 1004.47 44.796 1004.7 44.62C1004.94 44.44 1005.12 44.19 1005.22 43.87C1005.34 43.55 1005.39 43.18 1005.39 42.76C1005.39 42.336 1005.34 41.966 1005.22 41.65C1005.12 41.33 1004.95 41.082 1004.71 40.906C1004.48 40.726 1004.18 40.636 1003.81 40.636C1003.43 40.636 1003.11 40.732 1002.85 40.924C1002.6 41.112 1002.42 41.368 1002.3 41.692C1002.18 42.012 1002.12 42.368 1002.12 42.76C1002.12 43.156 1002.17 43.516 1002.29 43.84C1002.41 44.16 1002.59 44.414 1002.84 44.602C1003.08 44.79 1003.39 44.884 1003.77 44.884ZM1005.39 46V41.452H1005.21V37.36H1006.67V46H1005.39Z" fill="#515A6A"/>
<path fill-rule="evenodd" clip-rule="evenodd" d="M1021.34 41.0506C1021.33 41.0339 1021.33 41.017 1021.33 41V35.6667C1021.33 35.2987 1021.63 35 1022 35C1022.37 35 1022.67 35.2987 1022.67 35.6667V40.9999L1024.27 39.8C1024.56 39.578 1024.98 39.6387 1025.2 39.9333C1025.42 40.228 1025.36 40.646 1025.07 40.8667L1022.4 42.8667C1022.28 42.9553 1022.14 43 1022 43C1021.87 43 1021.73 42.9593 1021.62 42.8787L1018.95 41.0027C1018.65 40.7907 1018.58 40.3747 1018.79 40.074C1019 39.7727 1019.42 39.7 1019.72 39.912L1021.34 41.0506ZM1018 44.3333V45H1026V44.3333C1026 43.9667 1026.3 43.6667 1026.67 43.6667C1027.03 43.6667 1027.33 43.9667 1027.33 44.3333V45.6667C1027.33 46.0333 1027.03 46.3333 1026.67 46.3333H1017.33C1016.97 46.3333 1016.67 46.0333 1016.67 45.6667V44.3333C1016.67 43.9667 1016.97 43.6667 1017.33 43.6667C1017.7 43.6667 1018 43.9667 1018 44.3333Z" fill="#515A6A"/>
<mask id="mask1_929_78908" style="mask-type:alpha" maskUnits="userSpaceOnUse" x="1016" y="35" width="12" height="12">
<path fill-rule="evenodd" clip-rule="evenodd" d="M1021.34 41.0506C1021.33 41.0339 1021.33 41.017 1021.33 41V35.6667C1021.33 35.2987 1021.63 35 1022 35C1022.37 35 1022.67 35.2987 1022.67 35.6667V40.9999L1024.27 39.8C1024.56 39.578 1024.98 39.6387 1025.2 39.9333C1025.42 40.228 1025.36 40.646 1025.07 40.8667L1022.4 42.8667C1022.28 42.9553 1022.14 43 1022 43C1021.87 43 1021.73 42.9593 1021.62 42.8787L1018.95 41.0027C1018.65 40.7907 1018.58 40.3747 1018.79 40.074C1019 39.7727 1019.42 39.7 1019.72 39.912L1021.34 41.0506ZM1018 44.3333V45H1026V44.3333C1026 43.9667 1026.3 43.6667 1026.67 43.6667C1027.03 43.6667 1027.33 43.9667 1027.33 44.3333V45.6667C1027.33 46.0333 1027.03 46.3333 1026.67 46.3333H1017.33C1016.97 46.3333 1016.67 46.0333 1016.67 45.6667V44.3333C1016.67 43.9667 1016.97 43.6667 1017.33 43.6667C1017.7 43.6667 1018 43.9667 1018 44.3333Z" fill="white"/>
</mask>
<g mask="url(#mask1_929_78908)">
<rect x="1014" y="33" width="16" height="16" fill="#515A6A"/>
</g>
<rect x="936.5" y="24.5" width="101" height="33" rx="5.5" stroke="#765FBE"/>
<path d="M34.648 256.772L28.6 260.216L28.6 261.632L37 261.632L37 260.312L30.976 260.312L37 256.868L37 255.452L28.6 255.452L28.6 256.772L34.648 256.772ZM36.196 253.129C36.796 252.589 37.096 251.857 37.096 250.957C37.096 250.057 36.796 249.337 36.196 248.797C35.596 248.257 34.852 247.981 33.976 247.981C33.1 247.981 32.356 248.257 31.756 248.797C31.156 249.337 30.856 250.057 30.856 250.957C30.856 251.857 31.156 252.589 31.756 253.129C32.356 253.669 33.1 253.933 33.976 253.933C34.852 253.933 35.596 253.669 36.196 253.129ZM32.56 252.181C32.164 251.881 31.96 251.473 31.96 250.957C31.96 250.441 32.164 250.033 32.56 249.745C32.956 249.445 33.424 249.301 33.976 249.301C34.528 249.301 35.008 249.445 35.404 249.745C35.8 250.033 35.992 250.441 35.992 250.957C35.992 251.473 35.8 251.881 35.404 252.181C35.008 252.469 34.528 252.613 33.976 252.613C33.424 252.613 32.956 252.469 32.56 252.181ZM35.548 246.242C35.884 246.578 36.46 246.578 36.808 246.242C37.144 245.894 37.144 245.318 36.808 244.982C36.46 244.634 35.884 244.634 35.548 244.982C35.2 245.318 35.2 245.894 35.548 246.242ZM36.196 239.208C36.796 238.668 37.096 237.936 37.096 237.036C37.096 236.136 36.796 235.416 36.196 234.876C35.596 234.336 34.852 234.06 33.976 234.06C33.1 234.06 32.356 234.336 31.756 234.876C31.156 235.416 30.856 236.136 30.856 237.036C30.856 237.936 31.156 238.668 31.756 239.208C32.356 239.748 33.1 240.012 33.976 240.012C34.852 240.012 35.596 239.748 36.196 239.208ZM32.56 238.26C32.164 237.96 31.96 237.552 31.96 237.036C31.96 236.52 32.164 236.112 32.56 235.824C32.956 235.524 33.424 235.38 33.976 235.38C34.528 235.38 35.008 235.524 35.404 235.824C35.8 236.112 35.992 236.52 35.992 237.036C35.992 237.552 35.8 237.96 35.404 238.26C35.008 238.548 34.528 238.692 33.976 238.692C33.424 238.692 32.956 238.548 32.56 238.26ZM32.056 232.461L37 232.461L37 231.213L32.056 231.213L32.056 229.881L30.952 229.881L30.952 231.213L30.556 231.213C29.92 231.213 29.608 230.937 29.608 230.397C29.608 230.145 29.668 229.905 29.776 229.689L28.72 229.437C28.576 229.713 28.504 230.037 28.504 230.433C28.504 231.693 29.212 232.461 30.64 232.461L30.952 232.461L30.952 233.241L32.056 233.241L32.056 232.461ZM31.96 222.848C31.96 221.996 32.524 221.492 33.28 221.384L33.28 224.324C32.5 224.18 31.96 223.652 31.96 222.848ZM33.784 220.064C32.428 220.064 30.856 220.916 30.856 222.848C30.856 224.84 32.536 225.668 33.976 225.668C35.416 225.668 37.096 224.84 37.096 222.848C37.096 221.516 36.58 220.808 35.392 220.196L34.972 221.264C35.608 221.564 35.992 222.176 35.992 222.848C35.992 223.796 35.272 224.348 34.324 224.348L34.324 220.064L33.784 220.064ZM37 217.452L37 216.276L30.952 214.272L30.952 215.544L35.296 216.864L30.952 218.184L30.952 219.456L37 217.452ZM31.96 210.988C31.96 210.136 32.524 209.632 33.28 209.524L33.28 212.464C32.5 212.32 31.96 211.792 31.96 210.988ZM33.784 208.204C32.428 208.204 30.856 209.056 30.856 210.988C30.856 212.98 32.536 213.808 33.976 213.808C35.416 213.808 37.096 212.98 37.096 210.988C37.096 209.656 36.58 208.948 35.392 208.336L34.972 209.404C35.608 209.704 35.992 210.316 35.992 210.988C35.992 211.936 35.272 212.488 34.324 212.488L34.324 208.204L33.784 208.204ZM37 206.872L37 205.624L34.552 205.624C33.76 205.624 33.136 205.468 32.668 205.168C32.2 204.856 31.96 204.496 31.96 204.076C31.96 203.452 32.332 203.14 33.064 203.14L37 203.14L37 201.892L32.668 201.892C31.516 201.892 30.856 202.6 30.856 203.668C30.856 204.472 31.264 205.192 31.984 205.624L30.952 205.624L30.952 206.872L37 206.872ZM32.056 199.894L34.936 199.894C36.364 199.894 37.096 199.114 37.096 197.914C37.096 197.566 37.024 197.242 36.88 196.942L35.824 197.266C35.932 197.446 35.992 197.638 35.992 197.842C35.992 198.382 35.668 198.646 35.008 198.646L32.056 198.646L32.056 197.074L30.952 197.074L30.952 198.646L28.504 198.646L29.284 199.894L30.952 199.894L30.952 200.902L32.056 200.902L32.056 199.894ZM30.856 193.835C30.856 194.375 31.024 194.819 31.36 195.167C31.684 195.515 32.092 195.695 32.572 195.695C33.316 195.695 33.868 195.263 34.228 194.399C34.312 194.207 34.468 193.763 34.552 193.583C34.588 193.487 34.648 193.379 34.72 193.271C34.852 193.043 34.996 192.959 35.2 192.959C35.728 192.959 35.992 193.235 35.992 193.775C35.992 194.339 35.632 194.783 34.9 195.107L35.476 196.163C36.352 195.791 37.096 194.975 37.096 193.823C37.096 193.187 36.916 192.683 36.544 192.299C36.172 191.915 35.716 191.723 35.176 191.723C34.516 191.771 34.156 191.999 33.868 192.479C33.64 192.815 33.58 192.995 33.424 193.415C33.232 193.931 33.136 194.135 32.932 194.339C32.824 194.447 32.692 194.495 32.56 194.495C32.176 194.495 31.96 194.231 31.96 193.895C31.96 193.475 32.14 193.127 32.512 192.839L31.816 192.047C31.228 192.431 30.856 193.103 30.856 193.835Z" fill="#515A6A"/>
<path d="M49.0403 89.908V91.012L50.5883 90.112V97H51.5723V88.6H51.2003L49.0403 89.908ZM53.9082 98.284L55.3002 95.68H53.9322L53.1402 98.284H53.9082ZM57.2238 89.656C56.7198 90.412 56.4678 91.468 56.4678 92.8C56.4678 94.132 56.7198 95.188 57.2238 95.956C57.7278 96.712 58.4598 97.096 59.4198 97.096C60.3798 97.096 61.1118 96.712 61.6158 95.956C62.1198 95.188 62.3718 94.132 62.3718 92.8C62.3718 91.468 62.1198 90.412 61.6158 89.656C61.1118 88.888 60.3798 88.504 59.4198 88.504C58.4598 88.504 57.7278 88.888 57.2238 89.656ZM60.8358 90.34C61.1598 90.928 61.3158 91.744 61.3158 92.8C61.3158 93.856 61.1598 94.672 60.8358 95.26C60.5118 95.848 60.0438 96.136 59.4198 96.136C58.7958 96.136 58.3278 95.848 58.0038 95.26C57.6798 94.672 57.5238 93.856 57.5238 92.8C57.5238 91.744 57.6798 90.928 58.0038 90.34C58.3278 89.752 58.7958 89.464 59.4198 89.464C60.0438 89.464 60.5118 89.752 60.8358 90.34ZM64.6418 89.656C64.1378 90.412 63.8857 91.468 63.8857 92.8C63.8857 94.132 64.1378 95.188 64.6418 95.956C65.1458 96.712 65.8778 97.096 66.8378 97.096C67.7978 97.096 68.5298 96.712 69.0338 95.956C69.5378 95.188 69.7898 94.132 69.7898 92.8C69.7898 91.468 69.5378 90.412 69.0338 89.656C68.5298 88.888 67.7978 88.504 66.8378 88.504C65.8778 88.504 65.1458 88.888 64.6418 89.656ZM68.2538 90.34C68.5778 90.928 68.7338 91.744 68.7338 92.8C68.7338 93.856 68.5778 94.672 68.2538 95.26C67.9298 95.848 67.4618 96.136 66.8378 96.136C66.2138 96.136 65.7458 95.848 65.4218 95.26C65.0978 94.672 64.9418 93.856 64.9418 92.8C64.9418 91.744 65.0978 90.928 65.4218 90.34C65.7458 89.752 66.2138 89.464 66.8378 89.464C67.4618 89.464 67.9298 89.752 68.2538 90.34ZM72.0597 89.656C71.5557 90.412 71.3037 91.468 71.3037 92.8C71.3037 94.132 71.5557 95.188 72.0597 95.956C72.5637 96.712 73.2957 97.096 74.2557 97.096C75.2157 97.096 75.9477 96.712 76.4517 95.956C76.9557 95.188 77.2077 94.132 77.2077 92.8C77.2077 91.468 76.9557 90.412 76.4517 89.656C75.9477 88.888 75.2157 88.504 74.2557 88.504C73.2957 88.504 72.5637 88.888 72.0597 89.656ZM75.6717 90.34C75.9957 90.928 76.1517 91.744 76.1517 92.8C76.1517 93.856 75.9957 94.672 75.6717 95.26C75.3477 95.848 74.8797 96.136 74.2557 96.136C73.6317 96.136 73.1637 95.848 72.8397 95.26C72.5157 94.672 72.3597 93.856 72.3597 92.8C72.3597 91.744 72.5157 90.928 72.8397 90.34C73.1637 89.752 73.6317 89.464 74.2557 89.464C74.8797 89.464 75.3477 89.752 75.6717 90.34Z" fill="#515A6A"/>
<line x1="86.5" y1="93" x2="1015.5" y2="93" stroke="#CCCCCC" stroke-linecap="round"/>
<path d="M62.0111 141.648C62.0111 141.012 61.7951 140.484 61.3631 140.052C60.9311 139.62 60.3791 139.404 59.7071 139.404C59.0351 139.404 58.4831 139.62 58.0511 140.052C57.6191 140.484 57.4031 141.012 57.4031 141.648C57.4031 142.368 57.7871 143.076 58.3511 143.376C57.5831 143.724 57.1031 144.48 57.1031 145.488C57.1031 146.256 57.3551 146.868 57.8591 147.324C58.3631 147.768 58.9751 147.996 59.7071 147.996C60.4391 147.996 61.0511 147.768 61.5551 147.324C62.0591 146.868 62.3111 146.256 62.3111 145.488C62.3111 144.48 61.8311 143.724 61.0631 143.376C61.6271 143.076 62.0111 142.368 62.0111 141.648ZM60.8231 144.36C61.1111 144.636 61.2551 145.02 61.2551 145.488C61.2551 145.956 61.1111 146.34 60.8231 146.616C60.5351 146.892 60.1631 147.036 59.7071 147.036C59.2511 147.036 58.8791 146.892 58.5911 146.616C58.3031 146.34 58.1591 145.956 58.1591 145.488C58.1591 145.02 58.3031 144.636 58.5911 144.36C58.8791 144.084 59.2511 143.94 59.7071 143.94C60.1631 143.94 60.5351 144.084 60.8231 144.36ZM60.6431 140.688C60.8831 140.94 61.0031 141.252 61.0031 141.648C61.0031 142.044 60.8831 142.356 60.6431 142.608C60.4151 142.86 60.1031 142.98 59.7071 142.98C59.3111 142.98 58.9991 142.86 58.7591 142.608C58.5311 142.356 58.4111 142.044 58.4111 141.648C58.4111 141.252 58.5311 140.94 58.7591 140.688C58.9991 140.436 59.3111 140.316 59.7071 140.316C60.1031 140.316 60.4151 140.436 60.6431 140.688ZM64.6418 140.556C64.1378 141.312 63.8857 142.368 63.8857 143.7C63.8857 145.032 64.1378 146.088 64.6418 146.856C65.1458 147.612 65.8778 147.996 66.8378 147.996C67.7978 147.996 68.5298 147.612 69.0338 146.856C69.5378 146.088 69.7898 145.032 69.7898 143.7C69.7898 142.368 69.5378 141.312 69.0338 140.556C68.5298 139.788 67.7978 139.404 66.8378 139.404C65.8778 139.404 65.1458 139.788 64.6418 140.556ZM68.2538 141.24C68.5778 141.828 68.7338 142.644 68.7338 143.7C68.7338 144.756 68.5778 145.572 68.2538 146.16C67.9298 146.748 67.4618 147.036 66.8378 147.036C66.2138 147.036 65.7458 146.748 65.4218 146.16C65.0978 145.572 64.9418 144.756 64.9418 143.7C64.9418 142.644 65.0978 141.828 65.4218 141.24C65.7458 140.652 66.2138 140.364 66.8378 140.364C67.4618 140.364 67.9298 140.652 68.2538 141.24ZM72.0597 140.556C71.5557 141.312 71.3037 142.368 71.3037 143.7C71.3037 145.032 71.5557 146.088 72.0597 146.856C72.5637 147.612 73.2957 147.996 74.2557 147.996C75.2157 147.996 75.9477 147.612 76.4517 146.856C76.9557 146.088 77.2077 145.032 77.2077 143.7C77.2077 142.368 76.9557 141.312 76.4517 140.556C75.9477 139.788 75.2157 139.404 74.2557 139.404C73.2957 139.404 72.5637 139.788 72.0597 140.556ZM75.6717 141.24C75.9957 141.828 76.1517 142.644 76.1517 143.7C76.1517 144.756 75.9957 145.572 75.6717 146.16C75.3477 146.748 74.8797 147.036 74.2557 147.036C73.6317 147.036 73.1637 146.748 72.8397 146.16C72.5157 145.572 72.3597 144.756 72.3597 143.7C72.3597 142.644 72.5157 141.828 72.8397 141.24C73.1637 140.652 73.6317 140.364 74.2557 140.364C74.8797 140.364 75.3477 140.652 75.6717 141.24Z" fill="#515A6A"/>
<line x1="86.5" y1="143.9" x2="1015.5" y2="143.9" stroke="#CCCCCC" stroke-linecap="round"/>
<path d="M59.814 190.925C59.658 190.925 59.526 190.949 59.406 191.009L61.23 187.805H60.078L57.594 192.113C57.306 192.605 57.162 193.121 57.162 193.661C57.162 194.441 57.414 195.089 57.906 195.617C58.41 196.133 59.046 196.397 59.814 196.397C60.582 196.397 61.218 196.133 61.71 195.617C62.214 195.089 62.466 194.441 62.466 193.661C62.466 192.881 62.214 192.233 61.71 191.717C61.218 191.189 60.582 190.925 59.814 190.925ZM58.218 193.661C58.218 192.593 58.866 191.885 59.814 191.885C60.762 191.885 61.41 192.593 61.41 193.661C61.41 194.681 60.738 195.437 59.814 195.437C58.89 195.437 58.218 194.681 58.218 193.661ZM64.6418 188.957C64.1378 189.713 63.8857 190.769 63.8857 192.101C63.8857 193.433 64.1378 194.489 64.6418 195.257C65.1458 196.013 65.8778 196.397 66.8378 196.397C67.7978 196.397 68.5298 196.013 69.0338 195.257C69.5378 194.489 69.7898 193.433 69.7898 192.101C69.7898 190.769 69.5378 189.713 69.0338 188.957C68.5298 188.189 67.7978 187.805 66.8378 187.805C65.8778 187.805 65.1458 188.189 64.6418 188.957ZM68.2538 189.641C68.5778 190.229 68.7338 191.045 68.7338 192.101C68.7338 193.157 68.5778 193.973 68.2538 194.561C67.9298 195.149 67.4618 195.437 66.8378 195.437C66.2138 195.437 65.7458 195.149 65.4218 194.561C65.0978 193.973 64.9418 193.157 64.9418 192.101C64.9418 191.045 65.0978 190.229 65.4218 189.641C65.7458 189.053 66.2138 188.765 66.8378 188.765C67.4618 188.765 67.9298 189.053 68.2538 189.641ZM72.0597 188.957C71.5557 189.713 71.3037 190.769 71.3037 192.101C71.3037 193.433 71.5557 194.489 72.0597 195.257C72.5637 196.013 73.2957 196.397 74.2557 196.397C75.2157 196.397 75.9477 196.013 76.4517 195.257C76.9557 194.489 77.2077 193.433 77.2077 192.101C77.2077 190.769 76.9557 189.713 76.4517 188.957C75.9477 188.189 75.2157 187.805 74.2557 187.805C73.2957 187.805 72.5637 188.189 72.0597 188.957ZM75.6717 189.641C75.9957 190.229 76.1517 191.045 76.1517 192.101C76.1517 193.157 75.9957 193.973 75.6717 194.561C75.3477 195.149 74.8797 195.437 74.2557 195.437C73.6317 195.437 73.1637 195.149 72.8397 194.561C72.5157 193.973 72.3597 193.157 72.3597 192.101C72.3597 191.045 72.5157 190.229 72.8397 189.641C73.1637 189.053 73.6317 188.765 74.2557 188.765C74.8797 188.765 75.3477 189.053 75.6717 189.641Z" fill="#515A6A"/>
<line x1="86.5" y1="192.301" x2="1015.5" y2="192.301" stroke="#CCCCCC" stroke-linecap="round"/>
<path d="M61.3933 244.699V242.911H62.4373V241.951H61.3933V236.299H60.2653L56.7133 242.491V242.911H60.3613V244.699H61.3933ZM60.3613 237.883V241.951H58.0813L60.3613 237.883ZM64.6418 237.355C64.1378 238.111 63.8857 239.167 63.8857 240.499C63.8857 241.831 64.1378 242.887 64.6418 243.655C65.1458 244.411 65.8778 244.795 66.8378 244.795C67.7978 244.795 68.5298 244.411 69.0338 243.655C69.5378 242.887 69.7898 241.831 69.7898 240.499C69.7898 239.167 69.5378 238.111 69.0338 237.355C68.5298 236.587 67.7978 236.203 66.8378 236.203C65.8778 236.203 65.1458 236.587 64.6418 237.355ZM68.2538 238.039C68.5778 238.627 68.7338 239.443 68.7338 240.499C68.7338 241.555 68.5778 242.371 68.2538 242.959C67.9298 243.547 67.4618 243.835 66.8378 243.835C66.2138 243.835 65.7458 243.547 65.4218 242.959C65.0978 242.371 64.9418 241.555 64.9418 240.499C64.9418 239.443 65.0978 238.627 65.4218 238.039C65.7458 237.451 66.2138 237.163 66.8378 237.163C67.4618 237.163 67.9298 237.451 68.2538 238.039ZM72.0597 237.355C71.5557 238.111 71.3037 239.167 71.3037 240.499C71.3037 241.831 71.5557 242.887 72.0597 243.655C72.5637 244.411 73.2957 244.795 74.2557 244.795C75.2157 244.795 75.9477 244.411 76.4517 243.655C76.9557 242.887 77.2077 241.831 77.2077 240.499C77.2077 239.167 76.9557 238.111 76.4517 237.355C75.9477 236.587 75.2157 236.203 74.2557 236.203C73.2957 236.203 72.5637 236.587 72.0597 237.355ZM75.6717 238.039C75.9957 238.627 76.1517 239.443 76.1517 240.499C76.1517 241.555 75.9957 242.371 75.6717 242.959C75.3477 243.547 74.8797 243.835 74.2557 243.835C73.6317 243.835 73.1637 243.547 72.8397 242.959C72.5157 242.371 72.3597 241.555 72.3597 240.499C72.3597 239.443 72.5157 238.627 72.8397 238.039C73.1637 237.451 73.6317 237.163 74.2557 237.163C74.8797 237.163 75.3477 237.451 75.6717 238.039Z" fill="#515A6A"/>
<line x1="86.5" y1="240.699" x2="1015.5" y2="240.699" stroke="#CCCCCC" stroke-linecap="round"/>
<path d="M62.3541 293.1V292.14H58.9101L61.5261 288.756C61.9701 288.168 62.1981 287.568 62.1981 286.932C62.1981 286.272 62.0181 285.732 61.6701 285.336C61.2381 284.844 60.6261 284.604 59.8461 284.604C59.1981 284.604 58.6461 284.82 58.1901 285.24C57.7461 285.66 57.4941 286.188 57.4581 286.812L58.4661 287.004C58.5501 286.14 59.0661 285.564 59.8461 285.564C60.2901 285.564 60.6261 285.696 60.8541 285.972C61.0581 286.224 61.1661 286.536 61.1661 286.932C61.1661 287.46 61.0101 287.856 60.4821 288.528L57.2781 292.632V293.1H62.3541ZM64.6418 285.756C64.1378 286.512 63.8857 287.568 63.8857 288.9C63.8857 290.232 64.1378 291.288 64.6418 292.056C65.1458 292.812 65.8778 293.196 66.8378 293.196C67.7978 293.196 68.5298 292.812 69.0338 292.056C69.5378 291.288 69.7898 290.232 69.7898 288.9C69.7898 287.568 69.5378 286.512 69.0338 285.756C68.5298 284.988 67.7978 284.604 66.8378 284.604C65.8778 284.604 65.1458 284.988 64.6418 285.756ZM68.2538 286.44C68.5778 287.028 68.7338 287.844 68.7338 288.9C68.7338 289.956 68.5778 290.772 68.2538 291.36C67.9298 291.948 67.4618 292.236 66.8378 292.236C66.2138 292.236 65.7458 291.948 65.4218 291.36C65.0978 290.772 64.9418 289.956 64.9418 288.9C64.9418 287.844 65.0978 287.028 65.4218 286.44C65.7458 285.852 66.2138 285.564 66.8378 285.564C67.4618 285.564 67.9298 285.852 68.2538 286.44ZM72.0597 285.756C71.5557 286.512 71.3037 287.568 71.3037 288.9C71.3037 290.232 71.5557 291.288 72.0597 292.056C72.5637 292.812 73.2957 293.196 74.2557 293.196C75.2157 293.196 75.9477 292.812 76.4517 292.056C76.9557 291.288 77.2077 290.232 77.2077 288.9C77.2077 287.568 76.9557 286.512 76.4517 285.756C75.9477 284.988 75.2157 284.604 74.2557 284.604C73.2957 284.604 72.5637 284.988 72.0597 285.756ZM75.6717 286.44C75.9957 287.028 76.1517 287.844 76.1517 288.9C76.1517 289.956 75.9957 290.772 75.6717 291.36C75.3477 291.948 74.8797 292.236 74.2557 292.236C73.6317 292.236 73.1637 291.948 72.8397 291.36C72.5157 290.772 72.3597 289.956 72.3597 288.9C72.3597 287.844 72.5157 287.028 72.8397 286.44C73.1637 285.852 73.6317 285.564 74.2557 285.564C74.8797 285.564 75.3477 285.852 75.6717 286.44Z" fill="#515A6A"/>
<line x1="86.5" y1="289.1" x2="1015.5" y2="289.1" stroke="#CCCCCC" stroke-linecap="round"/>
<path d="M72.0597 334.156C71.5557 334.912 71.3037 335.968 71.3037 337.3C71.3037 338.632 71.5557 339.688 72.0597 340.456C72.5637 341.212 73.2957 341.596 74.2557 341.596C75.2157 341.596 75.9477 341.212 76.4517 340.456C76.9557 339.688 77.2077 338.632 77.2077 337.3C77.2077 335.968 76.9557 334.912 76.4517 334.156C75.9477 333.388 75.2157 333.004 74.2557 333.004C73.2957 333.004 72.5637 333.388 72.0597 334.156ZM75.6717 334.84C75.9957 335.428 76.1517 336.244 76.1517 337.3C76.1517 338.356 75.9957 339.172 75.6717 339.76C75.3477 340.348 74.8797 340.636 74.2557 340.636C73.6317 340.636 73.1637 340.348 72.8397 339.76C72.5157 339.172 72.3597 338.356 72.3597 337.3C72.3597 336.244 72.5157 335.428 72.8397 334.84C73.1637 334.252 73.6317 333.964 74.2557 333.964C74.8797 333.964 75.3477 334.252 75.6717 334.84Z" fill="#515A6A"/>
<line x1="86.5" y1="337.5" x2="1015.5" y2="337.5" stroke="#CCCCCC" stroke-linecap="round"/>
<path d="M115.158 359.934C115.158 361.264 114.612 361.936 113.534 361.936C112.624 361.936 112.05 361.39 111.812 360.284L110.566 360.55C110.832 362.02 111.84 363.112 113.534 363.112C114.36 363.112 115.046 362.832 115.578 362.286C116.124 361.74 116.39 360.97 116.39 359.99V353.2H115.158V359.934ZM119.427 360.97C119.427 360.172 120.113 359.724 121.303 359.724H122.563V359.892C122.563 360.634 122.367 361.18 121.975 361.53C121.583 361.88 121.121 362.048 120.589 362.048C119.847 362.048 119.427 361.642 119.427 360.97ZM123.739 358.492C123.739 356.7 122.661 355.832 121.023 355.832C119.693 355.832 118.699 356.574 118.517 357.764L119.553 358.002C119.707 357.316 120.281 356.896 121.023 356.896C122.045 356.896 122.563 357.386 122.563 358.352V358.66H121.415C119.441 358.66 118.223 359.472 118.223 360.97C118.223 362.412 119.133 363.112 120.407 363.112C121.373 363.112 122.101 362.748 122.619 362.006L122.815 363H123.739V358.492ZM131.382 358.03C131.382 356.63 130.598 355.832 129.31 355.832C128.288 355.832 127.504 356.308 126.972 357.246V355.944H125.796V363H126.972V360.046C126.972 359.108 127.168 358.338 127.56 357.764C127.966 357.19 128.442 356.896 128.988 356.896C129.8 356.896 130.206 357.372 130.206 358.338V363H131.382V358.03Z" fill="#2C2B2E"/>
<path d="M189.205 363H190.437V358.478H194.063V357.302H190.437V354.376H194.903V353.2H189.205V363ZM202.042 359.178C202.042 358.24 201.762 357.456 201.188 356.812C200.628 356.154 199.844 355.832 198.85 355.832C197.828 355.832 197.044 356.182 196.484 356.896C195.938 357.596 195.658 358.45 195.658 359.472C195.658 360.494 195.938 361.348 196.484 362.062C197.044 362.762 197.828 363.112 198.85 363.112C200.306 363.112 201.188 362.538 201.846 361.152L200.81 360.704C200.404 361.614 199.844 362.048 198.85 362.048C197.632 362.048 196.932 361.11 196.862 359.724H202.042V359.178ZM198.85 356.896C199.928 356.896 200.586 357.596 200.81 358.66H196.932C197.156 357.582 197.8 356.896 198.85 356.896ZM207.176 363.112C209.192 363.112 210.312 361.656 210.312 359.472C210.312 357.288 209.192 355.832 207.176 355.832C206.756 355.832 206.336 355.93 205.93 356.14C205.524 356.35 205.244 356.56 205.118 356.784V353.088H203.942V363H205.118V362.132C205.468 362.678 206.336 363.112 207.176 363.112ZM207.064 356.896C208.296 356.896 209.108 357.946 209.108 359.472C209.108 360.998 208.296 362.048 207.064 362.048C205.79 362.048 205.02 360.998 205.02 359.472C205.02 357.946 205.79 356.896 207.064 356.896Z" fill="#2C2B2E"/>
<path d="M267.475 363H268.707V355.86L271.171 362.104H272.039L274.503 355.86V363H275.735V353.2H274.223L271.605 360.102L268.987 353.2H267.475V363ZM278.906 360.97C278.906 360.172 279.592 359.724 280.782 359.724H282.042V359.892C282.042 360.634 281.846 361.18 281.454 361.53C281.062 361.88 280.6 362.048 280.068 362.048C279.326 362.048 278.906 361.642 278.906 360.97ZM283.218 358.492C283.218 356.7 282.14 355.832 280.502 355.832C279.172 355.832 278.178 356.574 277.996 357.764L279.032 358.002C279.186 357.316 279.76 356.896 280.502 356.896C281.524 356.896 282.042 357.386 282.042 358.352V358.66H280.894C278.92 358.66 277.702 359.472 277.702 360.97C277.702 362.412 278.612 363.112 279.886 363.112C280.852 363.112 281.58 362.748 282.098 362.006L282.294 363H283.218V358.492ZM289.42 356.042C289.154 355.902 288.832 355.832 288.454 355.832C287.67 355.832 286.788 356.364 286.382 357.148V355.944H285.206V363H286.382V360.326C286.382 359.248 286.578 358.408 286.97 357.806C287.362 357.204 287.824 356.896 288.356 356.896C288.65 356.896 288.916 356.966 289.182 357.092L289.42 356.042Z" fill="#2C2B2E"/>
<path d="M344.93 363H346.162L347.03 360.382H350.782L351.65 363H352.882L349.494 353.2H348.318L344.93 363ZM350.39 359.206H347.422L348.906 354.796L350.39 359.206ZM357.569 363.112C359.585 363.112 360.705 361.656 360.705 359.472C360.705 357.288 359.585 355.832 357.569 355.832C356.729 355.832 355.861 356.266 355.511 356.812V355.944H354.335V365.856H355.511V362.16C355.637 362.384 355.917 362.594 356.323 362.804C356.729 363.014 357.149 363.112 357.569 363.112ZM357.457 356.896C358.689 356.896 359.501 357.946 359.501 359.472C359.501 360.998 358.689 362.048 357.457 362.048C356.183 362.048 355.413 360.998 355.413 359.472C355.413 357.946 356.183 356.896 357.457 356.896ZM366.684 356.042C366.418 355.902 366.096 355.832 365.718 355.832C364.934 355.832 364.052 356.364 363.646 357.148V355.944H362.47V363H363.646V360.326C363.646 359.248 363.842 358.408 364.234 357.806C364.626 357.204 365.088 356.896 365.62 356.896C365.914 356.896 366.18 356.966 366.446 357.092L366.684 356.042Z" fill="#2C2B2E"/>
<path d="M423.378 363H424.61V355.86L427.074 362.104H427.942L430.406 355.86V363H431.638V353.2H430.126L427.508 360.102L424.89 353.2H423.378V363ZM434.809 360.97C434.809 360.172 435.495 359.724 436.685 359.724H437.945V359.892C437.945 360.634 437.749 361.18 437.357 361.53C436.965 361.88 436.503 362.048 435.971 362.048C435.229 362.048 434.809 361.642 434.809 360.97ZM439.121 358.492C439.121 356.7 438.043 355.832 436.405 355.832C435.075 355.832 434.081 356.574 433.899 357.764L434.935 358.002C435.089 357.316 435.663 356.896 436.405 356.896C437.427 356.896 437.945 357.386 437.945 358.352V358.66H436.797C434.823 358.66 433.605 359.472 433.605 360.97C433.605 362.412 434.515 363.112 435.789 363.112C436.755 363.112 437.483 362.748 438.001 362.006L438.197 363H439.121V358.492ZM443.467 361.04L441.675 355.944H440.387L442.865 362.706L441.745 365.856H442.949L446.449 355.944H445.217L443.467 361.04Z" fill="#2C2B2E"/>
<path d="M506.137 359.934C506.137 361.264 505.591 361.936 504.513 361.936C503.603 361.936 503.029 361.39 502.791 360.284L501.545 360.55C501.811 362.02 502.819 363.112 504.513 363.112C505.339 363.112 506.025 362.832 506.557 362.286C507.103 361.74 507.369 360.97 507.369 359.99V353.2H506.137V359.934ZM509.403 360.914C509.403 362.314 510.187 363.112 511.475 363.112C512.497 363.112 513.281 362.636 513.813 361.698V363H514.989V355.944H513.813V358.898C513.813 359.836 513.617 360.606 513.211 361.18C512.819 361.754 512.343 362.048 511.797 362.048C510.985 362.048 510.579 361.572 510.579 360.606V355.944H509.403V360.914ZM522.948 358.03C522.948 356.63 522.164 355.832 520.876 355.832C519.854 355.832 519.07 356.308 518.538 357.246V355.944H517.362V363H518.538V360.046C518.538 359.108 518.734 358.338 519.126 357.764C519.532 357.19 520.008 356.896 520.554 356.896C521.366 356.896 521.772 357.372 521.772 358.338V363H522.948V358.03Z" fill="#2C2B2E"/>
<path d="M583.875 359.934C583.875 361.264 583.329 361.936 582.251 361.936C581.341 361.936 580.767 361.39 580.529 360.284L579.283 360.55C579.549 362.02 580.557 363.112 582.251 363.112C583.077 363.112 583.763 362.832 584.295 362.286C584.841 361.74 585.107 360.97 585.107 359.99V353.2H583.875V359.934ZM587.141 360.914C587.141 362.314 587.925 363.112 589.213 363.112C590.235 363.112 591.019 362.636 591.551 361.698V363H592.727V355.944H591.551V358.898C591.551 359.836 591.355 360.606 590.949 361.18C590.557 361.754 590.081 362.048 589.535 362.048C588.723 362.048 588.317 361.572 588.317 360.606V355.944H587.141V360.914ZM594.977 363H596.153V353.088H594.977V363Z" fill="#2C2B2E"/>
<path d="M652.722 363H653.954L654.822 360.382H658.574L659.442 363H660.674L657.286 353.2H656.11L652.722 363ZM658.182 359.206H655.214L656.698 354.796L658.182 359.206ZM661.906 360.914C661.906 362.314 662.69 363.112 663.978 363.112C665 363.112 665.784 362.636 666.316 361.698V363H667.492V355.944H666.316V358.898C666.316 359.836 666.12 360.606 665.714 361.18C665.322 361.754 664.846 362.048 664.3 362.048C663.488 362.048 663.082 361.572 663.082 360.606V355.944H661.906V360.914ZM669.974 358.212C669.974 358.814 670.142 359.332 670.492 359.752C669.918 360.046 669.638 360.48 669.638 361.054C669.638 361.53 669.792 361.908 670.114 362.174C669.68 362.552 669.456 363.042 669.456 363.644C669.456 365.1 670.646 365.968 672.452 365.968C674.188 365.968 675.434 365.17 675.434 363.532C675.434 362.286 674.566 361.586 673.222 361.586H671.556C671.024 361.586 670.758 361.39 670.758 360.998C670.758 360.69 670.912 360.466 671.22 360.312C671.57 360.48 671.976 360.564 672.438 360.564C673.152 360.564 673.74 360.354 674.202 359.934C674.664 359.5 674.902 358.926 674.902 358.212C674.902 357.722 674.79 357.302 674.552 356.938L675.504 356.406L674.972 355.44L673.712 356.154C673.32 355.944 672.9 355.846 672.438 355.846C671.724 355.846 671.136 356.07 670.674 356.504C670.212 356.938 669.974 357.498 669.974 358.212ZM673.04 362.594C673.838 362.594 674.23 362.944 674.23 363.644C674.23 364.414 673.628 364.932 672.452 364.932C671.276 364.932 670.632 364.4 670.632 363.602C670.632 363.154 670.786 362.804 671.094 362.566C671.304 362.58 671.472 362.594 671.612 362.594H673.04ZM671.5 357.218C672.004 356.728 672.872 356.728 673.376 357.218C673.628 357.456 673.754 357.792 673.754 358.212C673.754 358.632 673.628 358.968 673.376 359.206C672.872 359.668 672.004 359.668 671.5 359.206C671.248 358.968 671.122 358.632 671.122 358.212C671.122 357.792 671.248 357.456 671.5 357.218Z" fill="#2C2B2E"/>
<path d="M737.093 354.656C736.575 353.648 735.847 353.088 734.545 353.088C733.887 353.088 733.327 353.326 732.851 353.802C732.375 354.278 732.137 354.866 732.137 355.58C732.137 356.308 732.361 356.854 732.865 357.302C733.369 357.736 733.747 357.96 734.517 358.31C735.693 358.87 736.365 359.36 736.365 360.214C736.365 360.676 736.239 361.068 735.987 361.376C735.665 361.754 735.231 361.936 734.657 361.936C733.495 361.936 732.935 361.152 732.557 359.822L731.493 360.466C731.661 361.236 732.025 361.88 732.599 362.37C733.173 362.86 733.859 363.112 734.657 363.112C735.553 363.112 736.281 362.804 736.841 362.188C737.345 361.642 737.597 360.97 737.597 360.186C737.555 359.206 737.205 358.632 736.547 358.142C736.085 357.792 735.819 357.652 735.259 357.372L734.503 356.98C734.349 356.896 734.167 356.77 733.943 356.616C733.509 356.28 733.369 355.944 733.369 355.482C733.369 354.824 733.873 354.264 734.545 354.264C735.203 354.264 735.651 354.502 736.099 355.3L737.093 354.656ZM745.401 359.178C745.401 358.24 745.121 357.456 744.547 356.812C743.987 356.154 743.203 355.832 742.209 355.832C741.187 355.832 740.403 356.182 739.843 356.896C739.297 357.596 739.017 358.45 739.017 359.472C739.017 360.494 739.297 361.348 739.843 362.062C740.403 362.762 741.187 363.112 742.209 363.112C743.665 363.112 744.547 362.538 745.205 361.152L744.169 360.704C743.763 361.614 743.203 362.048 742.209 362.048C740.991 362.048 740.291 361.11 740.221 359.724H745.401V359.178ZM742.209 356.896C743.287 356.896 743.945 357.596 744.169 358.66H740.291C740.515 357.582 741.159 356.896 742.209 356.896ZM750.453 363.112C752.469 363.112 753.589 361.656 753.589 359.472C753.589 357.288 752.469 355.832 750.453 355.832C749.613 355.832 748.745 356.266 748.395 356.812V355.944H747.219V365.856H748.395V362.16C748.521 362.384 748.801 362.594 749.207 362.804C749.613 363.014 750.033 363.112 750.453 363.112ZM750.341 356.896C751.573 356.896 752.385 357.946 752.385 359.472C752.385 360.998 751.573 362.048 750.341 362.048C749.067 362.048 748.297 360.998 748.297 359.472C748.297 357.946 749.067 356.896 750.341 356.896Z" fill="#2C2B2E"/>
<path d="M811.404 354.432C810.55 355.314 810.13 356.546 810.13 358.1C810.13 359.654 810.55 360.886 811.404 361.782C812.258 362.664 813.294 363.112 814.526 363.112C815.758 363.112 816.794 362.664 817.648 361.782C818.502 360.886 818.922 359.654 818.922 358.1C818.922 356.546 818.502 355.314 817.648 354.432C816.794 353.536 815.758 353.088 814.526 353.088C813.294 353.088 812.258 353.536 811.404 354.432ZM816.766 355.258C817.354 355.916 817.648 356.868 817.648 358.1C817.648 359.332 817.354 360.284 816.766 360.942C816.192 361.6 815.436 361.936 814.526 361.936C813.616 361.936 812.86 361.6 812.272 360.942C811.698 360.284 811.404 359.332 811.404 358.1C811.404 356.868 811.698 355.916 812.272 355.258C812.86 354.6 813.616 354.264 814.526 354.264C815.436 354.264 816.192 354.6 816.766 355.258ZM825.686 360.746C825.308 361.614 824.664 362.048 823.754 362.048C822.452 362.048 821.752 360.984 821.752 359.472C821.752 357.96 822.452 356.896 823.754 356.896C824.664 356.896 825.308 357.33 825.686 358.198L826.708 357.778C826.134 356.476 825.154 355.832 823.754 355.832C822.732 355.832 821.934 356.182 821.374 356.896C820.828 357.596 820.548 358.45 820.548 359.472C820.548 360.494 820.828 361.348 821.374 362.062C821.934 362.762 822.732 363.112 823.754 363.112C825.154 363.112 826.134 362.468 826.708 361.166L825.686 360.746ZM829.098 357.008V360.788C829.098 362.314 829.896 363.112 831.142 363.112C831.604 363.112 831.982 363.028 832.29 362.846L832.01 361.824C831.786 361.978 831.52 362.048 831.212 362.048C830.61 362.048 830.274 361.628 830.274 360.886V357.008H832.122V355.944H830.274V353.088L829.098 353.83V355.944H827.88V357.008H829.098Z" fill="#2C2B2E"/>
<path d="M895.095 360.858L890.671 353.2H889.229V363H890.461V355.37L894.885 363H896.327V353.2H895.095V360.858ZM899.299 362.048C899.929 362.762 900.741 363.112 901.763 363.112C902.785 363.112 903.597 362.762 904.213 362.048C904.843 361.334 905.151 360.466 905.151 359.472C905.151 358.478 904.843 357.624 904.213 356.91C903.597 356.196 902.785 355.832 901.763 355.832C900.741 355.832 899.929 356.196 899.299 356.91C898.683 357.624 898.375 358.478 898.375 359.472C898.375 360.466 898.683 361.334 899.299 362.048ZM900.153 357.666C900.545 357.148 901.077 356.896 901.763 356.896C902.449 356.896 902.981 357.148 903.359 357.666C903.751 358.17 903.947 358.772 903.947 359.472C903.947 360.172 903.751 360.774 903.359 361.292C902.981 361.796 902.449 362.048 901.763 362.048C901.077 362.048 900.545 361.796 900.153 361.292C899.775 360.774 899.579 360.172 899.579 359.472C899.579 358.772 899.775 358.17 900.153 357.666ZM909.027 361.502L907.305 355.944H906.101L908.425 363H909.629L911.953 355.944H910.749L909.027 361.502Z" fill="#2C2B2E"/>
<path d="M968.376 363H971.064C972.338 363 973.402 362.566 974.27 361.698C975.138 360.816 975.572 359.626 975.572 358.1C975.572 356.574 975.138 355.384 974.27 354.516C973.402 353.634 972.338 353.2 971.064 353.2H968.376V363ZM970.854 354.376C972.66 354.376 974.256 355.356 974.256 358.1C974.256 360.844 972.66 361.824 970.854 361.824H969.608V354.376H970.854ZM983.578 359.178C983.578 358.24 983.298 357.456 982.724 356.812C982.164 356.154 981.38 355.832 980.386 355.832C979.364 355.832 978.58 356.182 978.02 356.896C977.474 357.596 977.194 358.45 977.194 359.472C977.194 360.494 977.474 361.348 978.02 362.062C978.58 362.762 979.364 363.112 980.386 363.112C981.842 363.112 982.724 362.538 983.382 361.152L982.346 360.704C981.94 361.614 981.38 362.048 980.386 362.048C979.168 362.048 978.468 361.11 978.398 359.724H983.578V359.178ZM980.386 356.896C981.464 356.896 982.122 357.596 982.346 358.66H978.468C978.692 357.582 979.336 356.896 980.386 356.896ZM990.343 360.746C989.965 361.614 989.321 362.048 988.411 362.048C987.109 362.048 986.409 360.984 986.409 359.472C986.409 357.96 987.109 356.896 988.411 356.896C989.321 356.896 989.965 357.33 990.343 358.198L991.365 357.778C990.791 356.476 989.811 355.832 988.411 355.832C987.389 355.832 986.591 356.182 986.031 356.896C985.485 357.596 985.205 358.45 985.205 359.472C985.205 360.494 985.485 361.348 986.031 362.062C986.591 362.762 987.389 363.112 988.411 363.112C989.811 363.112 990.791 362.468 991.365 361.166L990.343 360.746Z" fill="#2C2B2E"/>
<path d="M516.227 391V385.336L518.087 390.232H519.023L520.883 385.336V391H522.203V382.6H520.643L518.555 388.192L516.467 382.6H514.907V391H516.227ZM524.523 390.196C525.063 390.796 525.795 391.096 526.695 391.096C527.595 391.096 528.315 390.796 528.855 390.196C529.395 389.596 529.671 388.852 529.671 387.976C529.671 387.1 529.395 386.356 528.855 385.756C528.315 385.156 527.595 384.856 526.695 384.856C525.795 384.856 525.063 385.156 524.523 385.756C523.983 386.356 523.719 387.1 523.719 387.976C523.719 388.852 523.983 389.596 524.523 390.196ZM525.471 386.56C525.771 386.164 526.179 385.96 526.695 385.96C527.211 385.96 527.619 386.164 527.907 386.56C528.207 386.956 528.351 387.424 528.351 387.976C528.351 388.528 528.207 389.008 527.907 389.404C527.619 389.8 527.211 389.992 526.695 389.992C526.179 389.992 525.771 389.8 525.471 389.404C525.183 389.008 525.039 388.528 525.039 387.976C525.039 387.424 525.183 386.956 525.471 386.56ZM531.053 391H532.301V388.552C532.301 387.76 532.457 387.136 532.757 386.668C533.069 386.2 533.429 385.96 533.849 385.96C534.473 385.96 534.785 386.332 534.785 387.064V391H536.033V386.668C536.033 385.516 535.325 384.856 534.257 384.856C533.453 384.856 532.733 385.264 532.301 385.984V384.952H531.053V391ZM538.031 386.056V388.936C538.031 390.364 538.811 391.096 540.011 391.096C540.359 391.096 540.683 391.024 540.983 390.88L540.659 389.824C540.479 389.932 540.287 389.992 540.083 389.992C539.543 389.992 539.279 389.668 539.279 389.008V386.056H540.851V384.952H539.279V382.504L538.031 383.284V384.952H537.023V386.056H538.031ZM542.198 391H543.446V388.444C543.446 387.7 543.626 387.1 543.974 386.644C544.322 386.188 544.694 385.96 545.078 385.96C545.702 385.96 546.026 386.2 546.026 387.064V391H547.274V386.74C547.274 385.48 546.626 384.856 545.486 384.856C544.646 384.856 543.962 385.228 543.446 385.984V382.504H542.198V391Z" fill="#515A6A"/>
<g style="mix-blend-mode:multiply" opacity="0.1">
<path d="M105.167 204.497L84 208.678V348.001H1018V157.896L998.156 164.84H976.989L967.067 171.341H953.837C950.309 172.424 942.989 174.591 941.931 174.591C940.872 174.591 933.993 175.892 930.686 176.542L902.242 178.492L885.705 181.093L859.246 178.492L845.356 176.542L825.511 181.093H805.006L787.807 176.542C781.193 175.892 767.699 174.591 766.64 174.591C765.582 174.591 756.939 173.291 752.749 172.641H742.166L717.03 174.591L695.201 176.542L685.279 181.093L655.513 183.043L640.299 184.993L623.101 188.244L606.564 196.046H599.288L579.443 194.095L560.261 188.244L543.724 184.993H533.802L516.603 183.043L492.129 184.993H468.977L445.826 188.244L422.674 192.145L405.476 196.046L386.955 197.996L361.819 196.046L341.975 197.996L322.13 199.946L303.609 197.996L278.473 202.547L257.306 199.946L236.139 202.547H215.633L193.805 204.497H171.314L148.824 206.448L126.996 202.547L105.167 204.497Z" fill="url(#paint0_linear_929_78908)"/>
</g>
<path d="M84 208.678L105.167 204.497L126.996 202.547L148.824 206.448L171.314 204.497H193.805L215.633 202.547H236.139L257.306 199.946L278.473 202.547L303.609 197.996L322.13 199.946L341.975 197.996L361.819 196.046L386.955 197.996L405.476 196.046L422.674 192.145L445.826 188.244L468.977 184.993H492.129L516.603 183.043L533.802 184.993H543.724L560.261 188.244L579.443 194.095L599.288 196.046H606.564L623.101 188.244L640.299 184.993L655.513 183.043L685.279 181.093L695.201 176.542L717.03 174.591L742.166 172.641H752.749C756.939 173.291 765.582 174.591 766.64 174.591C767.699 174.591 781.193 175.892 787.807 176.542L805.006 181.093H825.511L845.356 176.542L859.246 178.492L885.705 181.093L902.242 178.492L930.686 176.542C933.993 175.892 940.872 174.591 941.931 174.591C942.989 174.591 950.309 172.424 953.837 171.341H967.067L976.989 164.84H998.156L1018 157.896" stroke="#39B88D" stroke-width="2" stroke-linecap="round" stroke-linejoin="round"/>
<g style="mix-blend-mode:multiply" opacity="0.1">
<path d="M105.167 233.199L84 236.543V348.001H1018V195.918L998.156 201.472H976.989L967.067 206.673H953.837C950.309 207.54 942.989 209.274 941.931 209.274C940.872 209.274 933.993 210.314 930.686 210.834L902.242 212.395L885.705 214.475L859.246 212.395L845.356 210.834L825.511 214.475H805.006L787.807 210.834C781.193 210.314 767.699 209.274 766.64 209.274C765.582 209.274 756.939 208.234 752.749 207.714H742.166L717.03 209.274L695.201 210.834L685.279 214.475L655.513 216.035L640.299 217.596L623.101 220.196L606.564 226.437H599.288L579.443 224.877L560.261 220.196L543.724 217.596H533.802L516.603 216.035L492.129 217.596H468.977L445.826 220.196L422.674 223.317L405.476 226.437L386.955 227.998L361.819 226.437L341.975 227.998L322.13 229.558L303.609 227.998L278.473 231.638L257.306 229.558L236.139 231.638H215.633L193.805 233.199H171.314L148.824 234.759L126.996 231.638L105.167 233.199Z" fill="url(#paint1_linear_929_78908)"/>
</g>
<path d="M84 236.543L105.167 233.199L126.996 231.638L148.824 234.759L171.314 233.199H193.805L215.633 231.638H236.139L257.306 229.558L278.473 231.638L303.609 227.998L322.13 229.558L341.975 227.998L361.819 226.437L386.955 227.998L405.476 226.437L422.674 223.317L445.826 220.196L468.977 217.596H492.129L516.603 216.035L533.802 217.596H543.724L560.261 220.196L579.443 224.877L599.288 226.437H606.564L623.101 220.196L640.299 217.596L655.513 216.035L685.279 214.475L695.201 210.834L717.03 209.274L742.166 207.714H752.749C756.939 208.234 765.582 209.274 766.64 209.274C767.699 209.274 781.193 210.314 787.807 210.834L805.006 214.475H825.511L845.356 210.834L859.246 212.395L885.705 214.475L902.242 212.395L930.686 210.834C933.993 210.314 940.872 209.274 941.931 209.274C942.989 209.274 950.309 207.54 953.837 206.673H967.067L976.989 201.472H998.156L1018 195.918" stroke="#765FBE" stroke-width="2" stroke-linecap="round" stroke-linejoin="round"/>
<g style="mix-blend-mode:multiply" opacity="0.1">
<path d="M105.167 163.199L84 166.543V278.001H1018V125.918L998.156 131.472H976.989L967.067 136.673H953.837C950.309 137.54 942.989 139.274 941.931 139.274C940.872 139.274 933.993 140.314 930.686 140.834L902.242 142.395L885.705 144.475L859.246 142.395L845.356 140.834L825.511 144.475H805.006L787.807 140.834C781.193 140.314 767.699 139.274 766.64 139.274C765.582 139.274 756.939 138.234 752.749 137.714H742.166L717.03 139.274L695.201 140.834L685.279 144.475L655.513 146.035L640.299 147.596L623.101 150.196L606.564 156.437H599.288L579.443 154.877L560.261 150.196L543.724 147.596H533.802L516.603 146.035L492.129 147.596H468.977L445.826 150.196L422.674 153.317L405.476 156.437L386.955 157.998L361.819 156.437L341.975 157.998L322.13 159.558L303.609 157.998L278.473 161.638L257.306 159.558L236.139 161.638H215.633L193.805 163.199H171.314L148.824 164.759L126.996 161.638L105.167 163.199Z" fill="url(#paint2_linear_929_78908)"/>
</g>
<path d="M84 166.543L105.167 163.199L126.996 161.638L148.824 164.759L171.314 163.199H193.805L215.633 161.638H236.139L257.306 159.558L278.473 161.638L303.609 157.998L322.13 159.558L341.975 157.998L361.819 156.437L386.955 157.998L405.476 156.437L422.674 153.317L445.826 150.196L468.977 147.596H492.129L516.603 146.035L533.802 147.596H543.724L560.261 150.196L579.443 154.877L599.288 156.437H606.564L623.101 150.196L640.299 147.596L655.513 146.035L685.279 144.475L695.201 140.834L717.03 139.274L742.166 137.714H752.749C756.939 138.234 765.582 139.274 766.64 139.274C767.699 139.274 781.193 140.314 787.807 140.834L805.006 144.475H825.511L845.356 140.834L859.246 142.395L885.705 144.475L902.242 142.395L930.686 140.834C933.993 140.314 940.872 139.274 941.931 139.274C942.989 139.274 950.309 137.54 953.837 136.673H967.067L976.989 131.472H998.156L1018 125.918" stroke="#FD2EB3" stroke-width="2" stroke-linecap="round" stroke-linejoin="round"/>
<circle cx="30" cy="431" r="6" fill="#FD2EB3"/>
<path d="M47.472 427.144V437H48.88V427.144H52.112V425.8H44.24V427.144H47.472ZM53.8474 437H55.1914V428.936H53.8474V437ZM53.5114 426.696C53.5114 427.256 53.9434 427.688 54.5194 427.688C55.0954 427.688 55.5274 427.256 55.5274 426.696C55.5274 426.12 55.0954 425.672 54.5194 425.672C53.9434 425.672 53.5114 426.12 53.5114 426.696ZM63.1891 434.424C62.7571 435.416 62.0211 435.912 60.9811 435.912C59.4931 435.912 58.6931 434.696 58.6931 432.968C58.6931 431.24 59.4931 430.024 60.9811 430.024C62.0211 430.024 62.7571 430.52 63.1891 431.512L64.3571 431.032C63.7011 429.544 62.5811 428.808 60.9811 428.808C59.8131 428.808 58.9011 429.208 58.2611 430.024C57.6371 430.824 57.3171 431.8 57.3171 432.968C57.3171 434.136 57.6371 435.112 58.2611 435.928C58.9011 436.728 59.8131 437.128 60.9811 437.128C62.5811 437.128 63.7011 436.392 64.3571 434.904L63.1891 434.424ZM66.3314 437H67.6754V432.952L71.0834 437H72.7954L69.1154 432.632L72.5394 428.936H70.8114L67.6754 432.312V425.672H66.3314V437ZM81.0819 432.632C81.0819 431.56 80.7619 430.664 80.1059 429.928C79.4659 429.176 78.5699 428.808 77.4339 428.808C76.2659 428.808 75.3699 429.208 74.7299 430.024C74.1059 430.824 73.7859 431.8 73.7859 432.968C73.7859 434.136 74.1059 435.112 74.7299 435.928C75.3699 436.728 76.2659 437.128 77.4339 437.128C79.0979 437.128 80.1059 436.472 80.8579 434.888L79.6739 434.376C79.2099 435.416 78.5699 435.912 77.4339 435.912C76.0419 435.912 75.2419 434.84 75.1619 433.256H81.0819V432.632ZM77.4339 430.024C78.6659 430.024 79.4179 430.824 79.6739 432.04H75.2419C75.4979 430.808 76.2339 430.024 77.4339 430.024ZM83.7608 430.152V434.472C83.7608 436.216 84.6728 437.128 86.0968 437.128C86.6248 437.128 87.0568 437.032 87.4088 436.824L87.0888 435.656C86.8328 435.832 86.5288 435.912 86.1768 435.912C85.4888 435.912 85.1048 435.432 85.1048 434.584V430.152H87.2168V428.936H85.1048V425.672L83.7608 426.52V428.936H82.3688V430.152H83.7608ZM91.7448 428.808C90.3207 428.808 89.3768 429.752 89.3768 431.032C89.3768 432.568 90.7208 433.08 91.7768 433.48C92.4968 433.736 93.0888 434.12 93.0888 434.648C93.0888 435.496 92.6568 435.912 91.7928 435.912C90.9768 435.912 90.3528 435.384 89.9208 434.328L88.7848 434.952C89.2488 436.184 90.2728 437.128 91.7928 437.128C93.4408 437.128 94.4648 436.168 94.4648 434.568C94.4808 432.2 90.7048 432.488 90.7208 431.048C90.7208 430.408 91.1368 430.024 91.6968 430.024C92.1927 430.024 92.6727 430.296 93.1688 430.824L94.0808 430.04C93.5048 429.224 92.7208 428.808 91.7448 428.808Z" fill="#515A6A"/>
<circle cx="126" cy="431" r="6" fill="#765FBE"/>
<path d="M141.552 437H142.96V431.832H147.104V430.488H142.96V427.144H148.064V425.8H141.552V437ZM154.413 429.048C154.109 428.888 153.741 428.808 153.309 428.808C152.413 428.808 151.405 429.416 150.941 430.312V428.936H149.597V437H150.941V433.944C150.941 432.712 151.165 431.752 151.613 431.064C152.061 430.376 152.589 430.024 153.197 430.024C153.533 430.024 153.837 430.104 154.141 430.248L154.413 429.048ZM162.582 432.632C162.582 431.56 162.262 430.664 161.606 429.928C160.966 429.176 160.07 428.808 158.934 428.808C157.766 428.808 156.87 429.208 156.23 430.024C155.606 430.824 155.286 431.8 155.286 432.968C155.286 434.136 155.606 435.112 156.23 435.928C156.87 436.728 157.766 437.128 158.934 437.128C160.598 437.128 161.606 436.472 162.358 434.888L161.174 434.376C160.71 435.416 160.07 435.912 158.934 435.912C157.542 435.912 156.742 434.84 156.662 433.256H162.582V432.632ZM158.934 430.024C160.166 430.024 160.918 430.824 161.174 432.04H156.742C156.998 430.808 157.734 430.024 158.934 430.024ZM171.738 432.632C171.738 431.56 171.418 430.664 170.762 429.928C170.122 429.176 169.226 428.808 168.09 428.808C166.922 428.808 166.026 429.208 165.386 430.024C164.762 430.824 164.442 431.8 164.442 432.968C164.442 434.136 164.762 435.112 165.386 435.928C166.026 436.728 166.922 437.128 168.09 437.128C169.754 437.128 170.762 436.472 171.514 434.888L170.33 434.376C169.866 435.416 169.226 435.912 168.09 435.912C166.698 435.912 165.898 434.84 165.818 433.256H171.738V432.632ZM168.09 430.024C169.322 430.024 170.074 430.824 170.33 432.04H165.898C166.154 430.808 166.89 430.024 168.09 430.024ZM178.605 430.152V434.472C178.605 436.216 179.517 437.128 180.941 437.128C181.469 437.128 181.901 437.032 182.253 436.824L181.933 435.656C181.677 435.832 181.373 435.912 181.021 435.912C180.333 435.912 179.949 435.432 179.949 434.584V430.152H182.061V428.936H179.949V425.672L178.605 426.52V428.936H177.213V430.152H178.605ZM184.316 437H185.66V428.936H184.316V437ZM183.98 426.696C183.98 427.256 184.412 427.688 184.988 427.688C185.564 427.688 185.996 427.256 185.996 426.696C185.996 426.12 185.564 425.672 184.988 425.672C184.412 425.672 183.98 426.12 183.98 426.696ZM193.658 434.424C193.226 435.416 192.49 435.912 191.45 435.912C189.962 435.912 189.162 434.696 189.162 432.968C189.162 431.24 189.962 430.024 191.45 430.024C192.49 430.024 193.226 430.52 193.658 431.512L194.826 431.032C194.17 429.544 193.05 428.808 191.45 428.808C190.282 428.808 189.37 429.208 188.73 430.024C188.106 430.824 187.786 431.8 187.786 432.968C187.786 434.136 188.106 435.112 188.73 435.928C189.37 436.728 190.282 437.128 191.45 437.128C193.05 437.128 194.17 436.392 194.826 434.904L193.658 434.424ZM196.8 437H198.144V432.952L201.552 437H203.264L199.584 432.632L203.008 428.936H201.28L198.144 432.312V425.672H196.8V437ZM211.551 432.632C211.551 431.56 211.231 430.664 210.575 429.928C209.935 429.176 209.039 428.808 207.903 428.808C206.735 428.808 205.839 429.208 205.199 430.024C204.575 430.824 204.255 431.8 204.255 432.968C204.255 434.136 204.575 435.112 205.199 435.928C205.839 436.728 206.735 437.128 207.903 437.128C209.567 437.128 210.575 436.472 211.327 434.888L210.143 434.376C209.679 435.416 209.039 435.912 207.903 435.912C206.511 435.912 205.711 434.84 205.631 433.256H211.551V432.632ZM207.903 430.024C209.135 430.024 209.887 430.824 210.143 432.04H205.711C205.967 430.808 206.703 430.024 207.903 430.024ZM214.23 430.152V434.472C214.23 436.216 215.142 437.128 216.566 437.128C217.094 437.128 217.526 437.032 217.878 436.824L217.558 435.656C217.302 435.832 216.998 435.912 216.646 435.912C215.958 435.912 215.574 435.432 215.574 434.584V430.152H217.686V428.936H215.574V425.672L214.23 426.52V428.936H212.838V430.152H214.23ZM222.214 428.808C220.789 428.808 219.846 429.752 219.846 431.032C219.846 432.568 221.19 433.08 222.246 433.48C222.966 433.736 223.558 434.12 223.558 434.648C223.558 435.496 223.126 435.912 222.262 435.912C221.446 435.912 220.822 435.384 220.39 434.328L219.254 434.952C219.718 436.184 220.742 437.128 222.262 437.128C223.91 437.128 224.934 436.168 224.934 434.568C224.95 432.2 221.174 432.488 221.19 431.048C221.19 430.408 221.606 430.024 222.166 430.024C222.661 430.024 223.141 430.296 223.638 430.824L224.55 430.04C223.974 429.224 223.19 428.808 222.214 428.808Z" fill="#515A6A"/>
<circle cx="256" cy="431" r="6" fill="#39B88D"/>
<path d="M275.456 432.2C277.552 432.2 278.784 430.968 278.784 429C278.784 427.032 277.552 425.8 275.456 425.8H271.552V437H272.96V432.2H275.456ZM272.96 430.856V427.144H275.536C276.688 427.144 277.328 427.8 277.328 429C277.328 430.2 276.688 430.856 275.536 430.856H272.96ZM281.569 434.68C281.569 433.768 282.353 433.256 283.713 433.256H285.153V433.448C285.153 434.296 284.929 434.92 284.481 435.32C284.033 435.72 283.505 435.912 282.897 435.912C282.049 435.912 281.569 435.448 281.569 434.68ZM286.497 431.848C286.497 429.8 285.265 428.808 283.393 428.808C281.873 428.808 280.737 429.656 280.529 431.016L281.713 431.288C281.889 430.504 282.545 430.024 283.393 430.024C284.561 430.024 285.153 430.584 285.153 431.688V432.04H283.841C281.585 432.04 280.193 432.968 280.193 434.68C280.193 436.328 281.233 437.128 282.689 437.128C283.793 437.128 284.625 436.712 285.217 435.864L285.441 437H286.497V431.848ZM288.847 437H290.191V428.936H288.847V437ZM288.511 426.696C288.511 427.256 288.943 427.688 289.519 427.688C290.095 427.688 290.527 427.256 290.527 426.696C290.527 426.12 290.095 425.672 289.519 425.672C288.943 425.672 288.511 426.12 288.511 426.696ZM295.901 428.808C293.597 428.808 292.317 430.472 292.317 432.968C292.317 435.464 293.597 437.128 295.901 437.128C296.861 437.128 297.853 436.632 298.253 436.008V437H299.597V425.672H298.253V429.896C298.109 429.64 297.789 429.4 297.325 429.16C296.861 428.92 296.381 428.808 295.901 428.808ZM296.029 435.912C294.621 435.912 293.693 434.712 293.693 432.968C293.693 431.224 294.621 430.024 296.029 430.024C297.485 430.024 298.365 431.224 298.365 432.968C298.365 434.712 297.485 435.912 296.029 435.912ZM307.136 430.152V434.472C307.136 436.216 308.048 437.128 309.472 437.128C310 437.128 310.432 437.032 310.784 436.824L310.464 435.656C310.208 435.832 309.904 435.912 309.552 435.912C308.864 435.912 308.48 435.432 308.48 434.584V430.152H310.592V428.936H308.48V425.672L307.136 426.52V428.936H305.744V430.152H307.136ZM312.847 437H314.191V428.936H312.847V437ZM312.511 426.696C312.511 427.256 312.943 427.688 313.519 427.688C314.095 427.688 314.527 427.256 314.527 426.696C314.527 426.12 314.095 425.672 313.519 425.672C312.943 425.672 312.511 426.12 312.511 426.696ZM322.189 434.424C321.757 435.416 321.021 435.912 319.981 435.912C318.493 435.912 317.693 434.696 317.693 432.968C317.693 431.24 318.493 430.024 319.981 430.024C321.021 430.024 321.757 430.52 322.189 431.512L323.357 431.032C322.701 429.544 321.581 428.808 319.981 428.808C318.813 428.808 317.901 429.208 317.261 430.024C316.637 430.824 316.317 431.8 316.317 432.968C316.317 434.136 316.637 435.112 317.261 435.928C317.901 436.728 318.813 437.128 319.981 437.128C321.581 437.128 322.701 436.392 323.357 434.904L322.189 434.424ZM325.331 437H326.675V432.952L330.083 437H331.795L328.115 432.632L331.539 428.936H329.811L326.675 432.312V425.672H325.331V437ZM340.082 432.632C340.082 431.56 339.762 430.664 339.106 429.928C338.466 429.176 337.57 428.808 336.434 428.808C335.266 428.808 334.37 429.208 333.73 430.024C333.106 430.824 332.786 431.8 332.786 432.968C332.786 434.136 333.106 435.112 333.73 435.928C334.37 436.728 335.266 437.128 336.434 437.128C338.098 437.128 339.106 436.472 339.858 434.888L338.674 434.376C338.21 435.416 337.57 435.912 336.434 435.912C335.042 435.912 334.242 434.84 334.162 433.256H340.082V432.632ZM336.434 430.024C337.666 430.024 338.418 430.824 338.674 432.04H334.242C334.498 430.808 335.234 430.024 336.434 430.024ZM342.761 430.152V434.472C342.761 436.216 343.673 437.128 345.097 437.128C345.625 437.128 346.057 437.032 346.409 436.824L346.089 435.656C345.833 435.832 345.529 435.912 345.177 435.912C344.489 435.912 344.105 435.432 344.105 434.584V430.152H346.217V428.936H344.105V425.672L342.761 426.52V428.936H341.369V430.152H342.761ZM350.745 428.808C349.321 428.808 348.377 429.752 348.377 431.032C348.377 432.568 349.721 433.08 350.777 433.48C351.497 433.736 352.089 434.12 352.089 434.648C352.089 435.496 351.657 435.912 350.793 435.912C349.977 435.912 349.353 435.384 348.921 434.328L347.785 434.952C348.249 436.184 349.273 437.128 350.793 437.128C352.441 437.128 353.465 436.168 353.465 434.568C353.481 432.2 349.705 432.488 349.721 431.048C349.721 430.408 350.137 430.024 350.697 430.024C351.193 430.024 351.673 430.296 352.169 430.824L353.081 430.04C352.505 429.224 351.721 428.808 350.745 428.808Z" fill="#515A6A"/>
<line opacity="0.5" x1="24" y1="465.5" x2="1038" y2="465.5" stroke="#FFD2A6"/>
<rect x="24.5" y="490.5" width="240.5" height="79" rx="3.5" fill="#FEF1E3"/>
<path d="M128.79 526V524.08H123.39L127.37 519.02C128.15 518.04 128.53 516.96 128.53 515.82C128.53 514.6 128.15 513.62 127.39 512.92C126.65 512.2 125.67 511.84 124.47 511.84C123.35 511.84 122.41 512.2 121.63 512.9C120.87 513.6 120.45 514.46 120.39 515.52L122.39 515.9C122.55 514.6 123.29 513.76 124.47 513.76C125.73 513.76 126.39 514.6 126.39 515.9C126.39 516.78 126.15 517.4 125.27 518.5L120.11 525.12V526H128.79ZM138.677 526V523.2H140.317V521.28H138.677V512H136.437L130.517 522.24V523.2H136.557V526H138.677ZM136.557 515.2V521.28H133.157L136.557 515.2ZM143.604 523.58C143.044 524.14 143.044 525.1 143.604 525.68C144.184 526.24 145.144 526.24 145.704 525.68C146.284 525.1 146.284 524.14 145.704 523.58C145.144 523 144.184 523 143.604 523.58ZM157.232 526V523.2H158.872V521.28H157.232V512H154.992L149.072 522.24V523.2H155.112V526H157.232ZM155.112 515.2V521.28H151.712L155.112 515.2ZM161.759 526H163.839V521.18L167.739 526H170.379L165.899 520.56L170.119 515.92H167.479L163.839 519.94V511.84H161.759V526Z" fill="#332269"/>
<path d="M103.722 539.144V549H105.13V539.144H108.362V537.8H100.49V539.144H103.722ZM109.498 547.912C110.218 548.728 111.146 549.128 112.314 549.128C113.482 549.128 114.41 548.728 115.114 547.912C115.834 547.096 116.186 546.104 116.186 544.968C116.186 543.832 115.834 542.856 115.114 542.04C114.41 541.224 113.482 540.808 112.314 540.808C111.146 540.808 110.218 541.224 109.498 542.04C108.794 542.856 108.442 543.832 108.442 544.968C108.442 546.104 108.794 547.096 109.498 547.912ZM110.474 542.904C110.922 542.312 111.53 542.024 112.314 542.024C113.098 542.024 113.706 542.312 114.138 542.904C114.586 543.48 114.81 544.168 114.81 544.968C114.81 545.768 114.586 546.456 114.138 547.048C113.706 547.624 113.098 547.912 112.314 547.912C111.53 547.912 110.922 547.624 110.474 547.048C110.042 546.456 109.818 545.768 109.818 544.968C109.818 544.168 110.042 543.48 110.474 542.904ZM118.761 542.152V546.472C118.761 548.216 119.673 549.128 121.097 549.128C121.625 549.128 122.057 549.032 122.409 548.824L122.089 547.656C121.833 547.832 121.529 547.912 121.177 547.912C120.489 547.912 120.105 547.432 120.105 546.584V542.152H122.217V540.936H120.105V537.672L118.761 538.52V540.936H117.369V542.152H118.761ZM125.256 546.68C125.256 545.768 126.04 545.256 127.4 545.256H128.84V545.448C128.84 546.296 128.616 546.92 128.168 547.32C127.72 547.72 127.192 547.912 126.584 547.912C125.736 547.912 125.256 547.448 125.256 546.68ZM130.184 543.848C130.184 541.8 128.952 540.808 127.08 540.808C125.56 540.808 124.424 541.656 124.216 543.016L125.4 543.288C125.576 542.504 126.232 542.024 127.08 542.024C128.248 542.024 128.84 542.584 128.84 543.688V544.04H127.528C125.272 544.04 123.88 544.968 123.88 546.68C123.88 548.328 124.92 549.128 126.376 549.128C127.48 549.128 128.312 548.712 128.904 547.864L129.128 549H130.184V543.848ZM132.612 549H133.956V537.672H132.612V549ZM141.37 542.152V546.472C141.37 548.216 142.282 549.128 143.706 549.128C144.234 549.128 144.666 549.032 145.018 548.824L144.698 547.656C144.442 547.832 144.138 547.912 143.786 547.912C143.098 547.912 142.714 547.432 142.714 546.584V542.152H144.826V540.936H142.714V537.672L141.37 538.52V540.936H139.978V542.152H141.37ZM147.082 549H148.426V540.936H147.082V549ZM146.746 538.696C146.746 539.256 147.178 539.688 147.754 539.688C148.33 539.688 148.762 539.256 148.762 538.696C148.762 538.12 148.33 537.672 147.754 537.672C147.178 537.672 146.746 538.12 146.746 538.696ZM156.424 546.424C155.992 547.416 155.256 547.912 154.216 547.912C152.728 547.912 151.928 546.696 151.928 544.968C151.928 543.24 152.728 542.024 154.216 542.024C155.256 542.024 155.992 542.52 156.424 543.512L157.592 543.032C156.936 541.544 155.816 540.808 154.216 540.808C153.048 540.808 152.136 541.208 151.496 542.024C150.872 542.824 150.552 543.8 150.552 544.968C150.552 546.136 150.872 547.112 151.496 547.928C152.136 548.728 153.048 549.128 154.216 549.128C155.816 549.128 156.936 548.392 157.592 546.904L156.424 546.424ZM159.566 549H160.91V544.952L164.318 549H166.03L162.35 544.632L165.774 540.936H164.046L160.91 544.312V537.672H159.566V549ZM174.316 544.632C174.316 543.56 173.996 542.664 173.34 541.928C172.7 541.176 171.804 540.808 170.668 540.808C169.5 540.808 168.604 541.208 167.964 542.024C167.34 542.824 167.02 543.8 167.02 544.968C167.02 546.136 167.34 547.112 167.964 547.928C168.604 548.728 169.5 549.128 170.668 549.128C172.332 549.128 173.34 548.472 174.092 546.888L172.908 546.376C172.444 547.416 171.804 547.912 170.668 547.912C169.276 547.912 168.476 546.84 168.396 545.256H174.316V544.632ZM170.668 542.024C171.9 542.024 172.652 542.824 172.908 544.04H168.476C168.732 542.808 169.468 542.024 170.668 542.024ZM176.995 542.152V546.472C176.995 548.216 177.907 549.128 179.331 549.128C179.859 549.128 180.291 549.032 180.643 548.824L180.323 547.656C180.067 547.832 179.763 547.912 179.411 547.912C178.723 547.912 178.339 547.432 178.339 546.584V542.152H180.451V540.936H178.339V537.672L176.995 538.52V540.936H175.603V542.152H176.995ZM184.979 540.808C183.555 540.808 182.611 541.752 182.611 543.032C182.611 544.568 183.955 545.08 185.011 545.48C185.731 545.736 186.323 546.12 186.323 546.648C186.323 547.496 185.891 547.912 185.027 547.912C184.211 547.912 183.587 547.384 183.155 546.328L182.019 546.952C182.483 548.184 183.507 549.128 185.027 549.128C186.675 549.128 187.699 548.168 187.699 546.568C187.715 544.2 183.939 544.488 183.955 543.048C183.955 542.408 184.371 542.024 184.931 542.024C185.427 542.024 185.907 542.296 186.403 542.824L187.315 542.04C186.739 541.224 185.955 540.808 184.979 540.808Z" fill="#515A6A"/>
<rect x="24.5" y="490.5" width="240.5" height="79" rx="3.5" stroke="#FADCBE"/>
<rect x="282" y="490.5" width="240.5" height="79" rx="3.5" fill="#FEF1E3"/>
<path d="M386.29 526V524.08H380.89L384.87 519.02C385.65 518.04 386.03 516.96 386.03 515.82C386.03 514.6 385.65 513.62 384.89 512.92C384.15 512.2 383.17 511.84 381.97 511.84C380.85 511.84 379.91 512.2 379.13 512.9C378.37 513.6 377.95 514.46 377.89 515.52L379.89 515.9C380.05 514.6 380.79 513.76 381.97 513.76C383.23 513.76 383.89 514.6 383.89 515.9C383.89 516.78 383.65 517.4 382.77 518.5L377.61 525.12V526H386.29ZM388.27 522.14C388.35 523.3 388.83 524.26 389.71 525.02C390.59 525.78 391.63 526.16 392.85 526.16C394.15 526.16 395.25 525.72 396.13 524.86C397.03 523.98 397.47 522.88 397.47 521.54C397.47 520.3 397.15 519.28 396.49 518.5C395.85 517.7 394.99 517.3 393.93 517.3C393.71 517.3 393.51 517.32 393.35 517.36L396.75 512.72V512H388.95V513.92H393.69L390.79 517.96L391.63 519.08C392.05 518.9 392.45 518.8 392.85 518.8C394.35 518.8 395.35 519.78 395.35 521.54C395.35 523.24 394.35 524.24 392.85 524.24C391.43 524.24 390.59 523.46 390.33 521.88L388.27 522.14ZM400.811 523.58C400.251 524.14 400.251 525.1 400.811 525.68C401.391 526.24 402.351 526.24 402.911 525.68C403.491 525.1 403.491 524.14 402.911 523.58C402.351 523 401.391 523 400.811 523.58ZM414.439 526V523.2H416.079V521.28H414.439V512H412.199L406.279 522.24V523.2H412.319V526H414.439ZM412.319 515.2V521.28H408.919L412.319 515.2ZM418.966 526H421.046V521.18L424.946 526H427.586L423.106 520.56L427.326 515.92H424.686L421.046 519.94V511.84H418.966V526Z" fill="#332269"/>
<path d="M365.206 544.2C367.302 544.2 368.534 542.968 368.534 541C368.534 539.032 367.302 537.8 365.206 537.8H361.302V549H362.71V544.2H365.206ZM362.71 542.856V539.144H365.286C366.438 539.144 367.078 539.8 367.078 541C367.078 542.2 366.438 542.856 365.286 542.856H362.71ZM371.319 546.68C371.319 545.768 372.103 545.256 373.463 545.256H374.903V545.448C374.903 546.296 374.679 546.92 374.231 547.32C373.783 547.72 373.255 547.912 372.647 547.912C371.799 547.912 371.319 547.448 371.319 546.68ZM376.247 543.848C376.247 541.8 375.015 540.808 373.143 540.808C371.623 540.808 370.487 541.656 370.279 543.016L371.463 543.288C371.639 542.504 372.295 542.024 373.143 542.024C374.311 542.024 374.903 542.584 374.903 543.688V544.04H373.591C371.335 544.04 369.943 544.968 369.943 546.68C369.943 548.328 370.983 549.128 372.439 549.128C373.543 549.128 374.375 548.712 374.967 547.864L375.191 549H376.247V543.848ZM378.597 549H379.941V540.936H378.597V549ZM378.261 538.696C378.261 539.256 378.693 539.688 379.269 539.688C379.845 539.688 380.277 539.256 380.277 538.696C380.277 538.12 379.845 537.672 379.269 537.672C378.693 537.672 378.261 538.12 378.261 538.696ZM385.651 540.808C383.347 540.808 382.067 542.472 382.067 544.968C382.067 547.464 383.347 549.128 385.651 549.128C386.611 549.128 387.603 548.632 388.003 548.008V549H389.347V537.672H388.003V541.896C387.859 541.64 387.539 541.4 387.075 541.16C386.611 540.92 386.131 540.808 385.651 540.808ZM385.779 547.912C384.371 547.912 383.443 546.712 383.443 544.968C383.443 543.224 384.371 542.024 385.779 542.024C387.235 542.024 388.115 543.224 388.115 544.968C388.115 546.712 387.235 547.912 385.779 547.912ZM396.886 542.152V546.472C396.886 548.216 397.798 549.128 399.222 549.128C399.75 549.128 400.182 549.032 400.534 548.824L400.214 547.656C399.958 547.832 399.654 547.912 399.302 547.912C398.614 547.912 398.23 547.432 398.23 546.584V542.152H400.342V540.936H398.23V537.672L396.886 538.52V540.936H395.494V542.152H396.886ZM402.597 549H403.941V540.936H402.597V549ZM402.261 538.696C402.261 539.256 402.693 539.688 403.269 539.688C403.845 539.688 404.277 539.256 404.277 538.696C404.277 538.12 403.845 537.672 403.269 537.672C402.693 537.672 402.261 538.12 402.261 538.696ZM411.939 546.424C411.507 547.416 410.771 547.912 409.731 547.912C408.243 547.912 407.443 546.696 407.443 544.968C407.443 543.24 408.243 542.024 409.731 542.024C410.771 542.024 411.507 542.52 411.939 543.512L413.107 543.032C412.451 541.544 411.331 540.808 409.731 540.808C408.563 540.808 407.651 541.208 407.011 542.024C406.387 542.824 406.067 543.8 406.067 544.968C406.067 546.136 406.387 547.112 407.011 547.928C407.651 548.728 408.563 549.128 409.731 549.128C411.331 549.128 412.451 548.392 413.107 546.904L411.939 546.424ZM415.081 549H416.425V544.952L419.833 549H421.545L417.865 544.632L421.289 540.936H419.561L416.425 544.312V537.672H415.081V549ZM429.832 544.632C429.832 543.56 429.512 542.664 428.856 541.928C428.216 541.176 427.32 540.808 426.184 540.808C425.016 540.808 424.12 541.208 423.48 542.024C422.856 542.824 422.536 543.8 422.536 544.968C422.536 546.136 422.856 547.112 423.48 547.928C424.12 548.728 425.016 549.128 426.184 549.128C427.848 549.128 428.856 548.472 429.608 546.888L428.424 546.376C427.96 547.416 427.32 547.912 426.184 547.912C424.792 547.912 423.992 546.84 423.912 545.256H429.832V544.632ZM426.184 542.024C427.416 542.024 428.168 542.824 428.424 544.04H423.992C424.248 542.808 424.984 542.024 426.184 542.024ZM432.511 542.152V546.472C432.511 548.216 433.423 549.128 434.847 549.128C435.375 549.128 435.807 549.032 436.159 548.824L435.839 547.656C435.583 547.832 435.279 547.912 434.927 547.912C434.239 547.912 433.855 547.432 433.855 546.584V542.152H435.967V540.936H433.855V537.672L432.511 538.52V540.936H431.119V542.152H432.511ZM440.495 540.808C439.071 540.808 438.127 541.752 438.127 543.032C438.127 544.568 439.471 545.08 440.527 545.48C441.247 545.736 441.839 546.12 441.839 546.648C441.839 547.496 441.407 547.912 440.543 547.912C439.727 547.912 439.103 547.384 438.671 546.328L437.535 546.952C437.999 548.184 439.023 549.128 440.543 549.128C442.191 549.128 443.215 548.168 443.215 546.568C443.231 544.2 439.455 544.488 439.471 543.048C439.471 542.408 439.887 542.024 440.447 542.024C440.943 542.024 441.423 542.296 441.919 542.824L442.831 542.04C442.255 541.224 441.471 540.808 440.495 540.808Z" fill="#515A6A"/>
<rect x="282" y="490.5" width="240.5" height="79" rx="3.5" stroke="#FADCBE"/>
<rect x="539.5" y="490.5" width="240.5" height="79" rx="3.5" fill="#FEF1E3"/>
<path d="M642.67 514.32V516.56L645.29 515V526H647.41V512H646.55L642.67 514.32ZM651.3 523.58C650.74 524.14 650.74 525.1 651.3 525.68C651.88 526.24 652.84 526.24 653.4 525.68C653.98 525.1 653.98 524.14 653.4 523.58C652.84 523 651.88 523 651.3 523.58ZM661.607 517.04C661.407 517.04 661.247 517.06 661.147 517.12L664.207 511.84H661.847L657.687 519.06C657.227 519.86 657.007 520.7 657.007 521.6C657.007 522.9 657.427 523.98 658.267 524.86C659.127 525.72 660.187 526.16 661.487 526.16C662.787 526.16 663.847 525.72 664.687 524.86C665.547 523.98 665.967 522.9 665.967 521.6C665.967 520.26 665.567 519.18 664.747 518.32C663.927 517.46 662.887 517.04 661.607 517.04ZM659.127 521.6C659.127 519.98 660.067 518.96 661.487 518.96C662.907 518.96 663.847 519.98 663.847 521.6C663.847 523.14 662.867 524.24 661.487 524.24C660.107 524.24 659.127 523.14 659.127 521.6ZM668.829 526H670.909V521.18L674.809 526H677.449L672.969 520.56L677.189 515.92H674.549L670.909 519.94V511.84H668.829V526Z" fill="#332269"/>
<path d="M618.302 549H619.71V543.832H623.854V542.488H619.71V539.144H624.814V537.8H618.302V549ZM631.163 541.048C630.859 540.888 630.491 540.808 630.059 540.808C629.163 540.808 628.155 541.416 627.691 542.312V540.936H626.347V549H627.691V545.944C627.691 544.712 627.915 543.752 628.363 543.064C628.811 542.376 629.339 542.024 629.947 542.024C630.283 542.024 630.587 542.104 630.891 542.248L631.163 541.048ZM639.332 544.632C639.332 543.56 639.012 542.664 638.356 541.928C637.716 541.176 636.82 540.808 635.684 540.808C634.516 540.808 633.62 541.208 632.98 542.024C632.356 542.824 632.036 543.8 632.036 544.968C632.036 546.136 632.356 547.112 632.98 547.928C633.62 548.728 634.516 549.128 635.684 549.128C637.348 549.128 638.356 548.472 639.108 546.888L637.924 546.376C637.46 547.416 636.82 547.912 635.684 547.912C634.292 547.912 633.492 546.84 633.412 545.256H639.332V544.632ZM635.684 542.024C636.916 542.024 637.668 542.824 637.924 544.04H633.492C633.748 542.808 634.484 542.024 635.684 542.024ZM648.488 544.632C648.488 543.56 648.168 542.664 647.512 541.928C646.872 541.176 645.976 540.808 644.84 540.808C643.672 540.808 642.776 541.208 642.136 542.024C641.512 542.824 641.192 543.8 641.192 544.968C641.192 546.136 641.512 547.112 642.136 547.928C642.776 548.728 643.672 549.128 644.84 549.128C646.504 549.128 647.512 548.472 648.264 546.888L647.08 546.376C646.616 547.416 645.976 547.912 644.84 547.912C643.448 547.912 642.648 546.84 642.568 545.256H648.488V544.632ZM644.84 542.024C646.072 542.024 646.824 542.824 647.08 544.04H642.648C642.904 542.808 643.64 542.024 644.84 542.024ZM655.355 542.152V546.472C655.355 548.216 656.267 549.128 657.691 549.128C658.219 549.128 658.651 549.032 659.003 548.824L658.683 547.656C658.427 547.832 658.123 547.912 657.771 547.912C657.083 547.912 656.699 547.432 656.699 546.584V542.152H658.811V540.936H656.699V537.672L655.355 538.52V540.936H653.963V542.152H655.355ZM661.066 549H662.41V540.936H661.066V549ZM660.73 538.696C660.73 539.256 661.162 539.688 661.738 539.688C662.314 539.688 662.746 539.256 662.746 538.696C662.746 538.12 662.314 537.672 661.738 537.672C661.162 537.672 660.73 538.12 660.73 538.696ZM670.408 546.424C669.976 547.416 669.24 547.912 668.2 547.912C666.712 547.912 665.912 546.696 665.912 544.968C665.912 543.24 666.712 542.024 668.2 542.024C669.24 542.024 669.976 542.52 670.408 543.512L671.576 543.032C670.92 541.544 669.8 540.808 668.2 540.808C667.032 540.808 666.12 541.208 665.48 542.024C664.856 542.824 664.536 543.8 664.536 544.968C664.536 546.136 664.856 547.112 665.48 547.928C666.12 548.728 667.032 549.128 668.2 549.128C669.8 549.128 670.92 548.392 671.576 546.904L670.408 546.424ZM673.55 549H674.894V544.952L678.302 549H680.014L676.334 544.632L679.758 540.936H678.03L674.894 544.312V537.672H673.55V549ZM688.301 544.632C688.301 543.56 687.981 542.664 687.325 541.928C686.685 541.176 685.789 540.808 684.653 540.808C683.485 540.808 682.589 541.208 681.949 542.024C681.325 542.824 681.005 543.8 681.005 544.968C681.005 546.136 681.325 547.112 681.949 547.928C682.589 548.728 683.485 549.128 684.653 549.128C686.317 549.128 687.325 548.472 688.077 546.888L686.893 546.376C686.429 547.416 685.789 547.912 684.653 547.912C683.261 547.912 682.461 546.84 682.381 545.256H688.301V544.632ZM684.653 542.024C685.885 542.024 686.637 542.824 686.893 544.04H682.461C682.717 542.808 683.453 542.024 684.653 542.024ZM690.98 542.152V546.472C690.98 548.216 691.892 549.128 693.316 549.128C693.844 549.128 694.276 549.032 694.628 548.824L694.308 547.656C694.052 547.832 693.748 547.912 693.396 547.912C692.708 547.912 692.324 547.432 692.324 546.584V542.152H694.436V540.936H692.324V537.672L690.98 538.52V540.936H689.588V542.152H690.98ZM698.964 540.808C697.539 540.808 696.596 541.752 696.596 543.032C696.596 544.568 697.94 545.08 698.996 545.48C699.716 545.736 700.308 546.12 700.308 546.648C700.308 547.496 699.876 547.912 699.012 547.912C698.196 547.912 697.572 547.384 697.14 546.328L696.004 546.952C696.468 548.184 697.492 549.128 699.012 549.128C700.66 549.128 701.684 548.168 701.684 546.568C701.7 544.2 697.924 544.488 697.94 543.048C697.94 542.408 698.356 542.024 698.916 542.024C699.411 542.024 699.891 542.296 700.388 542.824L701.3 542.04C700.724 541.224 699.94 540.808 698.964 540.808Z" fill="#515A6A"/>
<rect x="539.5" y="490.5" width="240.5" height="79" rx="3.5" stroke="#FADCBE"/>
<rect x="797" y="490.5" width="240.5" height="79" rx="3.5" fill="#FEF1E3"/>
<path d="M898.23 522.08L892.49 512H890.13V526H892.33V515.96L898.07 526H900.43V512H898.23V522.08ZM903.733 514.32V516.56L906.353 515V526H908.473V512H907.613L903.733 514.32ZM912.362 523.58C911.802 524.14 911.802 525.1 912.362 525.68C912.942 526.24 913.902 526.24 914.462 525.68C915.042 525.1 915.042 524.14 914.462 523.58C913.902 523 912.942 523 912.362 523.58ZM922.669 517.04C922.469 517.04 922.309 517.06 922.209 517.12L925.269 511.84H922.909L918.749 519.06C918.289 519.86 918.069 520.7 918.069 521.6C918.069 522.9 918.489 523.98 919.329 524.86C920.189 525.72 921.249 526.16 922.549 526.16C923.849 526.16 924.909 525.72 925.749 524.86C926.609 523.98 927.029 522.9 927.029 521.6C927.029 520.26 926.629 519.18 925.809 518.32C924.989 517.46 923.949 517.04 922.669 517.04ZM920.189 521.6C920.189 519.98 921.129 518.96 922.549 518.96C923.969 518.96 924.909 519.98 924.909 521.6C924.909 523.14 923.929 524.24 922.549 524.24C921.169 524.24 920.189 523.14 920.189 521.6ZM929.892 526H931.972V522.18C931.972 519.3 932.992 517.6 934.332 517.6C935.232 517.6 935.812 518.18 935.812 519.24V526H937.892V521.96C937.892 519.3 938.952 517.6 940.252 517.6C941.152 517.6 941.732 518.18 941.732 519.24V526H943.812V518.78C943.812 516.96 942.752 515.76 940.932 515.76C939.632 515.76 938.492 516.5 937.792 517.84C937.492 516.58 936.372 515.76 935.012 515.76C933.792 515.76 932.792 516.38 931.972 517.64V515.92H929.892V526Z" fill="#332269"/>
<path d="M888.25 521H902.31V522H888.25V521Z" fill="#332269"/>
<path d="M869.722 539.144V549H871.13V539.144H874.362V537.8H866.49V539.144H869.722ZM875.498 547.912C876.218 548.728 877.146 549.128 878.314 549.128C879.482 549.128 880.41 548.728 881.114 547.912C881.834 547.096 882.186 546.104 882.186 544.968C882.186 543.832 881.834 542.856 881.114 542.04C880.41 541.224 879.482 540.808 878.314 540.808C877.146 540.808 876.218 541.224 875.498 542.04C874.794 542.856 874.442 543.832 874.442 544.968C874.442 546.104 874.794 547.096 875.498 547.912ZM876.474 542.904C876.922 542.312 877.53 542.024 878.314 542.024C879.098 542.024 879.706 542.312 880.138 542.904C880.586 543.48 880.81 544.168 880.81 544.968C880.81 545.768 880.586 546.456 880.138 547.048C879.706 547.624 879.098 547.912 878.314 547.912C877.53 547.912 876.922 547.624 876.474 547.048C876.042 546.456 875.818 545.768 875.818 544.968C875.818 544.168 876.042 543.48 876.474 542.904ZM884.761 542.152V546.472C884.761 548.216 885.673 549.128 887.097 549.128C887.625 549.128 888.057 549.032 888.409 548.824L888.089 547.656C887.833 547.832 887.529 547.912 887.177 547.912C886.489 547.912 886.105 547.432 886.105 546.584V542.152H888.217V540.936H886.105V537.672L884.761 538.52V540.936H883.369V542.152H884.761ZM891.256 546.68C891.256 545.768 892.04 545.256 893.4 545.256H894.84V545.448C894.84 546.296 894.616 546.92 894.168 547.32C893.72 547.72 893.192 547.912 892.584 547.912C891.736 547.912 891.256 547.448 891.256 546.68ZM896.184 543.848C896.184 541.8 894.952 540.808 893.08 540.808C891.56 540.808 890.424 541.656 890.216 543.016L891.4 543.288C891.576 542.504 892.232 542.024 893.08 542.024C894.248 542.024 894.84 542.584 894.84 543.688V544.04H893.528C891.272 544.04 889.88 544.968 889.88 546.68C889.88 548.328 890.92 549.128 892.376 549.128C893.48 549.128 894.312 548.712 894.904 547.864L895.128 549H896.184V543.848ZM898.612 549H899.956V537.672H898.612V549ZM915.162 549L911.818 543.624C913.29 543.32 914.154 542.296 914.154 540.76C914.154 538.904 912.858 537.8 910.858 537.8H907.13V549H908.538V543.72H910.218L913.498 549H915.162ZM910.89 539.144C912.09 539.144 912.698 539.688 912.698 540.76C912.698 541.832 912.09 542.376 910.89 542.376H908.538V539.144H910.89ZM923.473 544.632C923.473 543.56 923.153 542.664 922.497 541.928C921.857 541.176 920.961 540.808 919.825 540.808C918.657 540.808 917.761 541.208 917.121 542.024C916.497 542.824 916.177 543.8 916.177 544.968C916.177 546.136 916.497 547.112 917.121 547.928C917.761 548.728 918.657 549.128 919.825 549.128C921.489 549.128 922.497 548.472 923.249 546.888L922.065 546.376C921.601 547.416 920.961 547.912 919.825 547.912C918.433 547.912 917.633 546.84 917.553 545.256H923.473V544.632ZM919.825 542.024C921.057 542.024 921.809 542.824 922.065 544.04H917.633C917.889 542.808 918.625 542.024 919.825 542.024ZM927.867 547.288L925.899 540.936H924.523L927.179 549H928.555L931.211 540.936H929.835L927.867 547.288ZM939.566 544.632C939.566 543.56 939.246 542.664 938.59 541.928C937.95 541.176 937.054 540.808 935.918 540.808C934.75 540.808 933.854 541.208 933.214 542.024C932.59 542.824 932.27 543.8 932.27 544.968C932.27 546.136 932.59 547.112 933.214 547.928C933.854 548.728 934.75 549.128 935.918 549.128C937.582 549.128 938.59 548.472 939.342 546.888L938.158 546.376C937.694 547.416 937.054 547.912 935.918 547.912C934.526 547.912 933.726 546.84 933.646 545.256H939.566V544.632ZM935.918 542.024C937.15 542.024 937.902 542.824 938.158 544.04H933.726C933.982 542.808 934.718 542.024 935.918 542.024ZM948.247 543.32C948.247 541.72 947.351 540.808 945.879 540.808C944.711 540.808 943.815 541.352 943.207 542.424V540.936H941.863V549H943.207V545.624C943.207 544.552 943.431 543.672 943.879 543.016C944.343 542.36 944.887 542.024 945.511 542.024C946.439 542.024 946.903 542.568 946.903 543.672V549H948.247V543.32ZM950.845 546.616C950.845 548.216 951.741 549.128 953.213 549.128C954.381 549.128 955.277 548.584 955.885 547.512V549H957.229V540.936H955.885V544.312C955.885 545.384 955.661 546.264 955.197 546.92C954.749 547.576 954.205 547.912 953.581 547.912C952.653 547.912 952.189 547.368 952.189 546.264V540.936H950.845V546.616ZM966.738 544.632C966.738 543.56 966.418 542.664 965.762 541.928C965.122 541.176 964.226 540.808 963.09 540.808C961.922 540.808 961.026 541.208 960.386 542.024C959.762 542.824 959.442 543.8 959.442 544.968C959.442 546.136 959.762 547.112 960.386 547.928C961.026 548.728 961.922 549.128 963.09 549.128C964.754 549.128 965.762 548.472 966.514 546.888L965.33 546.376C964.866 547.416 964.226 547.912 963.09 547.912C961.698 547.912 960.898 546.84 960.818 545.256H966.738V544.632ZM963.09 542.024C964.322 542.024 965.074 542.824 965.33 544.04H960.898C961.154 542.808 961.89 542.024 963.09 542.024Z" fill="#515A6A"/>
<rect x="797" y="490.5" width="240.5" height="79" rx="3.5" stroke="#FADCBE"/>
<rect x="0.5" y="0.5" width="1061" height="593" rx="7.5" stroke="#FFD2A6"/>
<defs>
<linearGradient id="paint0_linear_929_78908" x1="551" y1="157.896" x2="551" y2="339.537" gradientUnits="userSpaceOnUse">
<stop stop-color="#39B88D"/>
<stop offset="1" stop-color="#39B88D" stop-opacity="0"/>
</linearGradient>
<linearGradient id="paint1_linear_929_78908" x1="551" y1="195.918" x2="551" y2="341.23" gradientUnits="userSpaceOnUse">
<stop stop-color="#9747FF"/>
<stop offset="1" stop-color="#9747FF" stop-opacity="0"/>
</linearGradient>
<linearGradient id="paint2_linear_929_78908" x1="551" y1="125.918" x2="551" y2="271.23" gradientUnits="userSpaceOnUse">
<stop stop-color="#FD2EB3"/>
<stop offset="1" stop-color="#FD2EB3" stop-opacity="0"/>
</linearGradient>
</defs>
</svg>
