<svg width="14" height="12" viewBox="0 0 14 12" fill="none" xmlns="http://www.w3.org/2000/svg">
<path d="M0.333984 0.666667C0.333984 0.489856 0.404222 0.320286 0.529246 0.195262C0.654271 0.0702379 0.82384 0 1.00065 0H13.0007C13.1775 0 13.347 0.0702379 13.4721 0.195262C13.5971 0.320286 13.6673 0.489856 13.6673 0.666667V4.33333C13.2253 4.33333 12.8014 4.50893 12.4888 4.82149C12.1762 5.13405 12.0007 5.55797 12.0007 6C12.0007 6.44203 12.1762 6.86595 12.4888 7.17851C12.8014 7.49107 13.2253 7.66667 13.6673 7.66667V11.3333C13.6673 11.5101 13.5971 11.6797 13.4721 11.8047C13.347 11.9298 13.1775 12 13.0007 12H1.00065C0.82384 12 0.654271 11.9298 0.529246 11.8047C0.404222 11.6797 0.333984 11.5101 0.333984 11.3333V0.666667ZM4.39065 10.6667C4.45936 10.4713 4.58702 10.3022 4.75599 10.1825C4.92496 10.0628 5.12692 9.99851 5.33398 9.99851C5.54105 9.99851 5.74301 10.0628 5.91198 10.1825C6.08095 10.3022 6.2086 10.4713 6.27732 10.6667H12.334V8.688C11.8332 8.4398 11.4117 8.05663 11.117 7.58169C10.8223 7.10676 10.6661 6.55894 10.6661 6C10.6661 5.44107 10.8223 4.89324 11.117 4.41831C11.4117 3.94337 11.8332 3.5602 12.334 3.312V1.33333H6.27732C6.2086 1.52866 6.08095 1.69785 5.91198 1.81753C5.74301 1.93721 5.54105 2.00149 5.33398 2.00149C5.12692 2.00149 4.92496 1.93721 4.75599 1.81753C4.58702 1.69785 4.45936 1.52866 4.39065 1.33333H1.66732V10.6667H4.39065ZM5.33398 5.33333C5.06877 5.33333 4.81441 5.22798 4.62688 5.04044C4.43934 4.8529 4.33398 4.59855 4.33398 4.33333C4.33398 4.06812 4.43934 3.81376 4.62688 3.62623C4.81441 3.43869 5.06877 3.33333 5.33398 3.33333C5.5992 3.33333 5.85356 3.43869 6.04109 3.62623C6.22863 3.81376 6.33398 4.06812 6.33398 4.33333C6.33398 4.59855 6.22863 4.8529 6.04109 5.04044C5.85356 5.22798 5.5992 5.33333 5.33398 5.33333ZM5.33398 8.66667C5.06877 8.66667 4.81441 8.56131 4.62688 8.37377C4.43934 8.18624 4.33398 7.93188 4.33398 7.66667C4.33398 7.40145 4.43934 7.1471 4.62688 6.95956C4.81441 6.77202 5.06877 6.66667 5.33398 6.66667C5.5992 6.66667 5.85356 6.77202 6.04109 6.95956C6.22863 7.1471 6.33398 7.40145 6.33398 7.66667C6.33398 7.93188 6.22863 8.18624 6.04109 8.37377C5.85356 8.56131 5.5992 8.66667 5.33398 8.66667Z" fill="#515A6A"/>
</svg>
